-0.04413
-0.11252
-0.14255
-0.15710
-0.19559
-0.20731
-0.17273
-0.14621
-0.11252
-0.03851
0.01395
-0.00510
-0.03525
-0.02560
-0.00372
0.01965
0.04340
0.03345
-0.01056
-0.03400
-0.02783
-0.02570
-0.01086
0.02481
0.03281
-0.00101
-0.02942
-0.02490
-0.01825
-0.02560
-0.00626
0.04187
0.07733
0.08249
0.07791
0.09354
0.10226
0.07715
0.04071
0.01730
-0.01062
-0.06036
-0.08994
-0.09436
-0.11676
-0.13809
-0.13675
-0.13629
-0.11627
-0.05005
0.01971
0.03348
0.00806
0.01114
0.03125
0.05045
0.09634
0.13541
0.12421
0.10156
0.10333
0.10245
0.10095
0.11530
0.12509
0.11322
0.08295
0.05292
0.03088
-0.00031
-0.03540
-0.03400
0.00522
0.02673
0.01874
0.02640
0.03870
0.02176
-0.00928
-0.03824
-0.06638
-0.10309
-0.13593
-0.15155
-0.16891
-0.18170
-0.16751
-0.14267
-0.12537
-0.08508
-0.01703
0.00418
-0.04153
-0.07321
-0.06448
-0.04611
-0.00613
0.04550
0.05811
0.03534
0.01898
0.01846
0.04584
0.09857
0.13339
0.14127
0.13351
0.11417
0.09399
0.07162
0.05258
0.05978
0.08435
0.09750
0.09741
0.09265
0.07843
0.05960
0.04205
0.02231
0.00818
-0.01395
-0.04889
-0.06982
-0.08801
-0.11469
-0.11694
-0.10248
-0.10300
-0.08368
-0.01233
0.05051
0.04144
0.00049
-0.01355
-0.01016
0.00024
0.02377
0.03146
0.00659
-0.02231
-0.03958
-0.03546
0.00610
0.05270
0.07077
0.06796
0.06558
0.07126
0.06213
0.04242
0.04227
0.06583
0.08649
0.07660
0.05862
0.06128
0.06091
0.03842
0.01328
-0.01138
-0.06546
-0.13809
-0.17310
-0.17856
-0.19562
-0.20355
-0.18170
-0.16409
-0.15714
-0.10739
-0.02158
0.02008
0.00433
-0.01093
-0.01053
0.00165
0.04019
0.07584
0.07510
0.06345
0.05252
0.02893
0.02219
0.05197
0.07861
0.07706
0.06326
0.06259
0.06644
0.04852
0.02893
0.04346
0.09259
0.12524
0.12354
0.12900
0.14157
0.12936
0.09274
0.06033
0.03601
-0.00677
-0.06271
-0.09964
-0.12656
-0.16693
-0.19888
-0.20364
-0.19720
-0.16901
-0.09750
-0.03201
-0.02356
-0.04077
-0.04718
-0.04199
-0.01193
0.03674
0.05695
0.04465
0.03076
0.02011
0.02136
0.04492
0.07913
0.10693
0.10709
0.07968
0.05646
0.04022
0.01480
0.00278
0.03415
0.07666
0.09058
0.09262
0.10104
0.11667
0.11911
0.10037
0.08167
0.05450
0.01321
-0.02203
-0.05869
-0.10266
-0.12503
-0.12878
-0.14331
-0.13977
-0.08270
-0.02817
-0.03207
-0.05737
-0.06674
-0.06909
-0.05447
-0.00964
0.03018
0.03470
0.02045
0.00269
-0.00708
0.00925
0.04172
0.06406
0.06491
0.05637
0.04950
0.03900
0.02435
0.01221
0.01312
0.02768
0.03653
0.03488
0.03665
0.04471
0.04645
0.03796
0.02820
0.00763
-0.02209
-0.03540
-0.04254
-0.06476
-0.08185
-0.07880
-0.08185
-0.10104
-0.08386
-0.01773
0.01694
-0.00412
-0.02551
-0.03067
-0.03763
-0.03259
-0.01111
-0.00024
-0.00607
-0.02304
-0.03906
-0.02954
0.00580
0.04211
0.06250
0.06665
0.06244
0.05524
0.03970
0.02106
0.02756
0.05997
0.08405
0.09686
0.11157
0.11673
0.10257
0.07794
0.05878
0.03076
-0.01697
-0.05515
-0.06946
-0.08765
-0.12219
-0.13547
-0.12354
-0.11777
-0.08990
-0.01239
0.05560
0.06683
0.04785
0.02371
0.01114
0.03058
0.06082
0.07153
0.06766
0.03873
-0.01666
-0.04916
-0.03253
0.00369
0.02612
0.02844
0.02921
0.03119
0.01349
-0.01718
-0.02829
-0.00668
0.02173
0.03610
0.04257
0.05276
0.06528
0.06305
0.05496
0.05673
0.03223
-0.02548
-0.07312
-0.10751
-0.14493
-0.17062
-0.17209
-0.17090
-0.15387
-0.09259
-0.02625
0.00635
0.01773
0.01999
0.01477
0.02545
0.06876
0.10974
0.11139
0.08847
0.06180
0.03561
0.02460
0.04254
0.07086
0.06979
0.04065
0.01984
0.01044
-0.00287
-0.01709
-0.01123
0.01880
0.04120
0.04410
0.05197
0.07089
0.07898
0.07422
0.06625
0.04385
0.01004
-0.01718
-0.05151
-0.09479
-0.12897
-0.16068
-0.20410
-0.26599
-0.31650
-0.34732
-0.32919
-0.20798
-0.09705
-0.07309
-0.04987
0.01166
0.06833
0.11444
0.17654
0.21426
0.21335
0.21475
0.19983
0.16241
0.16003
0.18619
0.19672
0.19949
0.18750
0.13022
0.06131
0.03601
0.04456
0.05542
0.06180
0.06158
0.06927
0.07886
0.07785
0.07404
0.04984
0.00293
-0.04361
-0.08948
-0.14075
-0.16409
-0.16171
-0.17859
-0.17670
-0.11359
-0.05722
-0.04559
-0.03082
-0.05008
-0.08850
-0.04181
0.05328
0.15521
0.20322
0.12283
-0.03604
-0.17194
-0.18781
-0.11752
-0.08627
-0.07648
-0.08606
-0.09991
-0.05511
-0.07199
-0.07651
-0.05365
-0.12421
-0.14499
-0.10776
-0.09607
-0.08963
-0.05203
0.01956
0.06622
0.06604
0.03177
-0.00061
-0.00122
-0.03479
-0.11234
-0.12231
-0.07852
-0.02609
0.04315
0.08200
0.10379
0.08737
0.03796
0.03879
0.05328
0.10046
0.18640
0.19119
0.11844
0.01855
-0.11502
-0.18069
-0.15784
-0.10724
-0.04111
-0.04391
0.01318
0.13446
0.14764
0.14743
0.16418
0.22076
0.32111
0.31650
0.26804
0.24213
0.19888
0.23972
0.30283
0.25653
0.13681
-0.03873
-0.12244
-0.13739
-0.24503
-0.30042
-0.28802
-0.26968
-0.21378
-0.14984
-0.09277
-0.05835
-0.07516
-0.15039
-0.21371
-0.18588
-0.14172
-0.08325
0.07150
0.15036
0.10965
0.09653
0.11182
0.15320
0.15067
0.08780
0.11017
0.16431
0.19324
0.22745
0.23779
0.24420
0.26086
0.25876
0.24582
0.25327
0.26895
0.27209
0.20386
0.08960
-0.05212
-0.21252
-0.27631
-0.30899
-0.41049
-0.49161
-0.51813
-0.47610
-0.38278
-0.32626
-0.25967
-0.17294
-0.10260
-0.01074
-0.00647
-0.10315
-0.11984
-0.05032
0.05203
0.09909
0.06204
0.02939
0.02722
0.04892
0.04706
0.01715
-0.01413
-0.01968
0.01581
0.02011
-0.01849
-0.02335
-0.03848
-0.06351
-0.03128
-0.03775
-0.08920
-0.08472
-0.04755
0.00427
0.03638
0.02350
0.04092
0.05899
0.02490
-0.00098
0.01227
0.03195
0.04819
0.07660
0.15765
0.25882
0.28342
0.25284
0.20554
0.18033
0.19229
0.19531
0.21896
0.21890
0.11081
-0.04349
-0.15646
-0.17767
-0.19092
-0.28900
-0.31580
-0.23672
-0.17996
-0.13016
-0.12173
-0.12997
-0.04865
0.06378
0.11697
0.09595
0.04514
0.00836
0.03821
0.11960
0.12714
0.05185
-0.00284
0.01779
0.05801
-0.00092
-0.10687
-0.12402
-0.14108
-0.19281
-0.15939
-0.09625
-0.06299
-0.03537
-0.04669
-0.06479
-0.08221
-0.12845
-0.12299
-0.06665
-0.04837
-0.03586
0.00385
0.05667
0.10660
0.10220
0.11807
0.19211
0.25729
0.30029
0.31802
0.38400
0.45706
0.43115
0.36890
0.31845
0.29959
0.33154
0.34009
0.32486
0.25937
0.09277
-0.02664
-0.10782
-0.24762
-0.39322
-0.52362
-0.58636
-0.56882
-0.52936
-0.47906
-0.41022
-0.28397
-0.12561
-0.01434
0.01620
-0.03656
-0.08646
-0.05887
0.02151
0.09900
0.07022
-0.03101
-0.04965
-0.02991
-0.02179
0.00833
0.00824
0.01208
0.04556
0.02945
-0.01724
-0.04453
-0.03687
0.01871
0.04752
0.01956
0.03143
0.06781
0.07257
0.06839
0.07574
0.11340
0.13885
0.13156
0.07257
-0.01410
-0.01840
-0.00839
-0.04456
-0.01971
0.08273
0.23441
0.37524
0.40167
0.36508
0.29739
0.25040
0.31818
0.37073
0.31815
0.23788
0.15747
0.06949
-0.01593
-0.09891
-0.20047
-0.29654
-0.32794
-0.33698
-0.35489
-0.37268
-0.37692
-0.28784
-0.14703
-0.06686
-0.03098
-0.05368
-0.08847
-0.02576
0.03561
0.03616
0.01288
-0.03391
-0.06076
-0.07629
-0.13327
-0.18777
-0.19452
-0.18268
-0.16150
-0.15714
-0.16736
-0.13315
-0.07788
-0.06003
-0.07944
-0.07294
-0.03696
-0.00769
0.04620
0.09274
0.11774
0.17477
0.21066
0.20862
0.21854
0.20215
0.19724
0.20895
0.19113
0.20691
0.23962
0.29492
0.38306
0.37799
0.28738
0.26093
0.31055
0.32474
0.25882
0.18094
0.12302
0.07007
0.01544
-0.08688
-0.23315
-0.37933
-0.47516
-0.49768
-0.53488
-0.58936
-0.56430
-0.48178
-0.33545
-0.16507
-0.12299
-0.16531
-0.16824
-0.13593
-0.09592
-0.04660
-0.01633
-0.02576
-0.06436
-0.07834
-0.02997
-0.01062
-0.05911
-0.06641
0.01324
0.07144
0.04752
0.03015
0.06680
0.10431
0.11191
0.09293
0.08749
0.11618
0.09354
0.05600
0.10721
0.16183
0.17487
0.15372
0.09918
0.06833
0.02444
-0.03583
-0.05194
-0.06155
-0.05676
0.03870
0.21307
0.32632
0.30643
0.27460
0.31183
0.38965
0.42047
0.34946
0.27094
0.21628
0.13297
0.05688
-0.03818
-0.15521
-0.21997
-0.26990
-0.29800
-0.29895
-0.35843
-0.41266
-0.32706
-0.17493
-0.09244
-0.08612
-0.07916
-0.02710
-0.00348
-0.00201
0.03476
0.04300
-0.00562
-0.04510
-0.06088
-0.10599
-0.18997
-0.25137
-0.28290
-0.31769
-0.32458
-0.31201
-0.24582
-0.10303
-0.01904
0.00290
0.02609
0.03024
0.04340
0.04614
0.07834
0.18451
0.24722
0.25296
0.26727
0.28394
0.27017
0.22437
0.19644
0.16312
0.11993
0.13483
0.19366
0.25830
0.27405
0.24039
0.26736
0.34604
0.40936
0.42609
0.35593
0.29028
0.27563
0.21964
0.10745
-0.03607
-0.19913
-0.30231
-0.33792
-0.42191
-0.54239
-0.60681
-0.55670
-0.41766
-0.30206
-0.24844
-0.22742
-0.20334
-0.16101
-0.11002
-0.04614
-0.00464
-0.01492
-0.01947
-0.02847
-0.04553
-0.02661
-0.03391
-0.03647
-0.01303
-0.05057
-0.10104
-0.13599
-0.15326
-0.10840
-0.06223
-0.00861
0.07599
0.10754
0.08063
0.08450
0.15198
0.20798
0.24561
0.30798
0.33218
0.31427
0.29590
0.23135
0.13437
0.03955
0.00433
0.07452
0.15097
0.19370
0.20032
0.15448
0.14865
0.22418
0.27484
0.24783
0.21774
0.19824
0.16434
0.10861
0.00861
-0.10538
-0.17572
-0.19290
-0.21289
-0.27451
-0.35641
-0.40439
-0.36066
-0.25925
-0.19110
-0.15152
-0.13126
-0.11603
-0.06619
-0.06024
-0.08142
-0.05069
-0.02979
-0.02689
-0.04538
-0.10861
-0.14005
-0.15808
-0.19617
-0.22025
-0.25455
-0.27512
-0.25592
-0.22968
-0.19681
-0.13428
-0.06339
-0.02603
0.00320
0.04120
0.06223
0.11639
0.19528
0.21603
0.21213
0.24454
0.32101
0.36060
0.29907
0.24063
0.24213
0.23663
0.22629
0.23859
0.22913
0.20474
0.21533
0.26563
0.33243
0.35519
0.31061
0.27042
0.27188
0.25409
0.16006
0.00177
-0.14001
-0.20630
-0.25482
-0.36890
-0.49640
-0.54892
-0.54886
-0.47415
-0.31308
-0.20758
-0.18262
-0.14435
-0.08627
-0.02881
-0.02078
-0.03873
0.00433
0.04065
-0.00162
-0.06546
-0.09183
-0.07477
-0.06351
-0.08832
-0.11612
-0.11618
-0.12418
-0.17487
-0.19354
-0.14056
-0.09821
-0.06689
-0.01611
0.01804
0.04099
0.07733
0.15314
0.25027
0.29523
0.29459
0.32352
0.35352
0.31955
0.22629
0.11252
0.05884
0.08746
0.12149
0.12576
0.13550
0.15515
0.16351
0.18381
0.23370
0.25928
0.23761
0.23038
0.25345
0.24524
0.14819
0.00964
-0.04849
-0.05890
-0.11191
-0.17334
-0.25482
-0.35022
-0.38553
-0.36511
-0.31244
-0.27322
-0.24991
-0.17566
-0.08536
-0.04736
-0.04999
-0.04410
-0.00256
0.03351
0.01257
-0.05768
-0.10886
-0.10938
-0.14047
-0.20551
-0.24811
-0.29132
-0.32285
-0.32388
-0.30023
-0.25247
-0.21423
-0.18433
-0.15244
-0.15048
-0.12097
-0.00949
0.09619
0.15051
0.19809
0.27325
0.37848
0.45493
0.43607
0.37497
0.36816
0.39465
0.38614
0.34418
0.30298
0.26462
0.24106
0.25012
0.27283
0.27512
0.22809
0.19653
0.23004
0.21640
0.14120
0.05728
-0.05182
-0.12479
-0.17746
-0.28357
-0.41129
-0.51804
-0.55356
-0.49631
-0.40314
-0.32944
-0.27640
-0.21271
-0.14465
-0.09818
-0.07797
-0.07458
-0.02237
0.04922
0.02222
-0.03802
-0.04669
-0.03552
-0.01840
-0.01459
-0.01749
-0.01422
-0.04855
-0.09814
-0.12247
-0.14282
-0.13092
-0.08047
-0.05646
-0.06348
-0.05804
-0.03635
0.00525
0.06137
0.10339
0.14944
0.23169
0.31042
0.30829
0.23108
0.16055
0.15198
0.19205
0.21326
0.19257
0.18460
0.18744
0.20078
0.22873
0.21753
0.20438
0.22025
0.23447
0.24313
0.20413
0.10385
-0.00140
-0.06155
-0.06747
-0.09119
-0.17972
-0.27200
-0.31519
-0.32132
-0.32364
-0.29648
-0.24341
-0.19775
-0.10864
-0.01434
0.00848
0.01035
0.02832
0.06546
0.11301
0.11148
0.05194
-0.01758
-0.06543
-0.09064
-0.14545
-0.23819
-0.29404
-0.30624
-0.33200
-0.34354
-0.28842
-0.21774
-0.19083
-0.18893
-0.17450
-0.13638
-0.08298
-0.03131
0.01010
0.06424
0.14478
0.24115
0.33414
0.36020
0.32303
0.31125
0.33252
0.36975
0.37360
0.29517
0.24091
0.27118
0.30319
0.29596
0.27585
0.27475
0.29269
0.30493
0.29935
0.26617
0.19321
0.08527
0.00873
-0.03329
-0.14001
-0.29099
-0.41840
-0.49689
-0.50266
-0.49234
-0.48352
-0.40939
-0.30826
-0.24326
-0.19351
-0.14581
-0.09137
-0.02649
0.03119
0.07333
0.07446
0.02380
-0.00009
0.03735
0.05179
0.02914
0.02316
0.00916
-0.05136
-0.12210
-0.15512
-0.16006
-0.15009
-0.13657
-0.14282
-0.13226
-0.09470
-0.06763
-0.04733
-0.01788
0.06137
0.17230
0.24759
0.29678
0.29529
0.22931
0.19955
0.23770
0.25522
0.21219
0.17694
0.21201
0.26352
0.26004
0.20807
0.16974
0.18130
0.20215
0.21582
0.19666
0.11520
0.03931
0.00726
-0.01154
-0.04333
-0.12891
-0.23471
-0.27441
-0.28580
-0.32382
-0.35226
-0.33331
-0.26828
-0.19705
-0.14542
-0.09436
-0.05783
-0.05222
-0.01675
0.05331
0.07895
0.04861
0.01672
0.00601
-0.00790
-0.04184
-0.09082
-0.14063
-0.17426
-0.21359
-0.24112
-0.20819
-0.16931
-0.16147
-0.16925
-0.17392
-0.13205
-0.09250
-0.09671
-0.07968
-0.03912
0.00574
0.08585
0.17810
0.21841
0.21136
0.23645
0.32135
0.38943
0.37415
0.30978
0.28827
0.31348
0.32364
0.31870
0.30640
0.29874
0.32648
0.34503
0.31631
0.27374
0.20712
0.12741
0.07974
0.02725
-0.08533
-0.24146
-0.36392
-0.41492
-0.45938
-0.51364
-0.50287
-0.42569
-0.34341
-0.27505
-0.20898
-0.15329
-0.10968
-0.05438
0.01065
0.05530
0.07202
0.04965
0.01587
0.02341
0.02979
0.01437
0.00296
-0.02045
-0.06332
-0.12286
-0.16281
-0.15085
-0.14304
-0.15567
-0.14279
-0.11264
-0.08920
-0.09000
-0.10510
-0.08481
-0.00616
0.10800
0.19186
0.21100
0.18884
0.15726
0.15942
0.18042
0.18274
0.16724
0.13409
0.14798
0.23346
0.26190
0.21619
0.20389
0.24692
0.31482
0.35068
0.32440
0.26761
0.21658
0.18597
0.15201
0.07770
-0.01962
-0.09372
-0.14932
-0.21790
-0.29303
-0.35773
-0.39972
-0.38516
-0.31894
-0.26462
-0.23633
-0.18024
-0.11057
-0.05811
-0.00989
0.03131
0.06470
0.05774
0.01456
0.00589
0.00940
-0.02487
-0.07504
-0.13937
-0.19650
-0.21335
-0.21902
-0.22842
-0.22607
-0.21719
-0.21500
-0.19821
-0.16086
-0.15027
-0.15506
-0.12393
-0.03958
0.07803
0.14795
0.16913
0.20969
0.25818
0.31342
0.37296
0.37747
0.33829
0.31903
0.32953
0.34366
0.32867
0.28436
0.26538
0.30225
0.33752
0.31104
0.25269
0.22610
0.22946
0.19888
0.11307
0.01096
-0.09286
-0.20697
-0.31369
-0.38879
-0.45419
-0.49289
-0.45071
-0.37509
-0.32285
-0.29156
-0.25964
-0.19791
-0.13306
-0.08810
-0.03900
-0.01117
-0.01144
-0.01675
-0.02206
0.00183
0.03992
0.04980
0.03217
0.01828
0.01389
-0.01294
-0.05103
-0.07742
-0.09698
-0.09485
-0.07544
-0.05356
-0.06097
-0.12592
-0.14996
-0.07486
0.01093
0.05780
0.07486
0.07404
0.08411
0.10428
0.11798
0.12296
0.10919
0.09839
0.13245
0.18985
0.21161
0.18637
0.16956
0.22672
0.31314
0.32950
0.29025
0.27393
0.28015
0.24725
0.18823
0.13641
0.05502
-0.02377
-0.06592
-0.11783
-0.18954
-0.26984
-0.30850
-0.27197
-0.23129
-0.20969
-0.17227
-0.12045
-0.05984
-0.02457
-0.01120
0.03198
0.08115
0.07053
0.01804
0.00735
0.01526
-0.03931
-0.12396
-0.18753
-0.22446
-0.24280
-0.26456
-0.25980
-0.23416
-0.23685
-0.22260
-0.17242
-0.15811
-0.18686
-0.19952
-0.15762
-0.06555
0.01920
0.05429
0.07401
0.12054
0.18073
0.22742
0.25705
0.27414
0.26144
0.23648
0.24384
0.26041
0.24207
0.20181
0.22122
0.30212
0.33371
0.31018
0.29755
0.30948
0.33759
0.32620
0.25403
0.17166
0.08472
-0.01099
-0.11404
-0.23181
-0.33771
-0.40601
-0.41937
-0.38712
-0.35757
-0.34686
-0.32278
-0.25647
-0.18329
-0.13416
-0.07483
-0.01703
-0.00253
-0.01599
-0.02338
0.00311
0.04053
0.04279
0.03397
0.02631
0.00522
-0.01169
-0.05164
-0.12387
-0.15384
-0.13394
-0.11414
-0.11249
-0.13950
-0.18390
-0.19754
-0.14056
-0.03894
0.03015
0.04849
0.07278
0.11810
0.15292
0.15567
0.14035
0.12274
0.11478
0.14642
0.17938
0.16205
0.13525
0.13339
0.15369
0.19748
0.21848
0.20197
0.19843
0.21893
0.24304
0.23398
0.17978
0.13290
0.11630
0.08923
0.02469
-0.05972
-0.13596
-0.18451
-0.19141
-0.18771
-0.18991
-0.16391
-0.12857
-0.10510
-0.07483
-0.04843
-0.01910
0.01184
0.01260
0.00867
0.01117
0.00293
-0.00711
-0.04697
-0.12076
-0.15979
-0.15778
-0.16983
-0.20221
-0.22037
-0.20523
-0.16696
-0.13544
-0.13974
-0.17365
-0.19376
-0.16992
-0.11493
-0.06473
-0.04221
-0.02509
0.00952
0.06323
0.13022
0.17224
0.18008
0.20956
0.25110
0.25296
0.22745
0.19586
0.18423
0.20901
0.25223
0.28473
0.27243
0.24109
0.26044
0.30435
0.30014
0.24304
0.17755
0.12466
0.05597
-0.03717
-0.15164
-0.25909
-0.31799
-0.34247
-0.33557
-0.29929
-0.26886
-0.23618
-0.19092
-0.13553
-0.06631
-0.01813
0.01114
0.04492
0.05139
0.03232
0.03574
0.05435
0.04596
0.00980
-0.01587
-0.01361
-0.02716
-0.09018
-0.16330
-0.19034
-0.16434
-0.12546
-0.11005
-0.13022
-0.17349
-0.19370
-0.16199
-0.09125
-0.01587
0.01065
0.01633
0.08041
0.13300
0.10037
0.05029
0.04095
0.06860
0.08566
0.07730
0.07901
0.08655
0.09528
0.12738
0.17398
0.19821
0.19370
0.21378
0.26630
0.30292
0.29831
0.24692
0.20670
0.20651
0.17297
0.09747
0.02698
-0.03839
-0.10120
-0.16745
-0.21368
-0.21268
-0.21371
-0.22604
-0.18497
-0.10867
-0.06830
-0.04761
-0.00336
0.04202
0.05280
0.05060
0.05957
0.05765
0.02048
-0.04227
-0.08792
-0.09848
-0.12564
-0.19559
-0.25421
-0.25647
-0.21460
-0.19678
-0.22440
-0.24408
-0.25571
-0.25067
-0.19122
-0.12390
-0.09161
-0.06638
-0.00412
0.09232
0.16187
0.18753
0.21100
0.25726
0.30453
0.30554
0.26389
0.22067
0.20383
0.21957
0.23148
0.22464
0.20346
0.16876
0.17279
0.22018
0.24091
0.22202
0.19250
0.17160
0.13931
0.05072
-0.06366
-0.15417
-0.22928
-0.28793
-0.29852
-0.27716
-0.26413
-0.25085
-0.22009
-0.17795
-0.13181
-0.08069
-0.03659
-0.01236
0.00018
0.01263
0.03085
0.04816
0.04694
0.04120
0.04446
0.05573
0.07150
0.03635
-0.04306
-0.08438
-0.08670
-0.07162
-0.05414
-0.07767
-0.12982
-0.16690
-0.16351
-0.12973
-0.10928
-0.10510
-0.08038
-0.02258
0.02225
0.01767
-0.00226
-0.00119
0.03665
0.08765
0.09079
0.06778
0.07059
0.09006
0.12079
0.14789
0.14713
0.14261
0.16501
0.20581
0.23172
0.21671
0.18811
0.18152
0.16956
0.13141
0.08960
0.04553
-0.00714
-0.05820
-0.10059
-0.13629
-0.15845
-0.15720
-0.14407
-0.11349
-0.05597
-0.00748
0.01666
0.03894
0.06555
0.09839
0.12054
0.12344
0.11539
0.06885
-0.00189
-0.04797
-0.08817
-0.14984
-0.22421
-0.28140
-0.29071
-0.25830
-0.21851
-0.21667
-0.24857
-0.26529
-0.24948
-0.21805
-0.18820
-0.15866
-0.11905
-0.06192
0.01346
0.07443
0.08652
0.09833
0.16220
0.23770
0.26056
0.21786
0.16663
0.16837
0.19952
0.21304
0.20792
0.19257
0.18887
0.21161
0.23831
0.25671
0.26660
0.26175
0.24603
0.22192
0.16452
0.05997
-0.04977
-0.12991
-0.19901
-0.26505
-0.30478
-0.31229
-0.30795
-0.31119
-0.28629
-0.20786
-0.13855
-0.09790
-0.05533
-0.01315
0.03494
0.07138
0.06580
0.05753
0.07632
0.09589
0.10880
0.11819
0.09311
0.01361
-0.06638
-0.08527
-0.06564
-0.07498
-0.12619
-0.16397
-0.16840
-0.17935
-0.18512
-0.16266
-0.12787
-0.07150
-0.00400
0.04492
0.06451
0.05011
0.04395
0.08627
0.12628
0.11230
0.07285
0.06873
0.11234
0.14365
0.11981
0.08459
0.09061
0.11920
0.13077
0.13684
0.15524
0.15872
0.15302
0.16309
0.16373
0.13351
0.08414
0.03918
0.00485
-0.04446
-0.10294
-0.13940
-0.15607
-0.15726
-0.14291
-0.11420
-0.07047
-0.03934
-0.03833
-0.02576
0.02682
0.08148
0.09604
0.08606
0.07742
0.05807
0.03104
0.00598
-0.03043
-0.08984
-0.15799
-0.17670
-0.14182
-0.12430
-0.14346
-0.17566
-0.19119
-0.18103
-0.18036
-0.19479
-0.19406
-0.16989
-0.12717
-0.08212
-0.05569
-0.03946
-0.00613
0.06720
0.16034
0.21252
0.19446
0.16125
0.17599
0.20557
0.20148
0.18954
0.19089
0.18973
0.19214
0.20523
0.21451
0.21362
0.20892
0.21204
0.20999
0.15796
0.06662
-0.01752
-0.09454
-0.16391
-0.22186
-0.26816
-0.28107
-0.27319
-0.27130
-0.24731
-0.17990
-0.11011
-0.07291
-0.03903
0.01404
0.06860
0.10645
0.11389
0.10837
0.10886
0.10837
0.12241
0.13571
0.09799
0.02573
-0.03421
-0.05881
-0.05969
-0.07306
-0.10184
-0.11670
-0.11722
-0.13690
-0.17685
-0.19647
-0.17242
-0.11844
-0.06049
-0.01492
0.00702
-0.00235
-0.00955
0.02542
0.06561
0.05209
0.01428
0.01718
0.05438
0.08374
0.08673
0.07593
0.08313
0.11060
0.13950
0.16275
0.17502
0.18948
0.21237
0.22708
0.22775
0.20474
0.15610
0.10764
0.07462
0.03622
-0.03241
-0.10721
-0.15762
-0.20020
-0.22531
-0.20767
-0.16266
-0.12579
-0.11273
-0.08752
-0.02841
0.03976
0.09119
0.10452
0.09222
0.09622
0.10837
0.09509
0.05411
-0.00781
-0.07520
-0.11945
-0.13162
-0.13379
-0.15396
-0.19077
-0.20825
-0.19885
-0.20404
-0.23315
-0.24280
-0.20239
-0.13531
-0.08472
-0.06479
-0.05112
-0.00082
0.08270
0.15845
0.21225
0.23190
0.21851
0.21136
0.21924
0.22507
0.21310
0.18085
0.16830
0.17114
0.14709
0.11798
0.11667
0.13660
0.16232
0.17987
0.17249
0.13147
0.06778
-0.00989
-0.08530
-0.13791
-0.18723
-0.23560
-0.25919
-0.25775
-0.23740
-0.21210
-0.18536
-0.14410
-0.10663
-0.07932
-0.02777
0.03299
0.05521
0.04504
0.04688
0.08826
0.14139
0.16095
0.14438
0.11597
0.08881
0.06491
0.04462
0.01828
-0.01282
-0.02768
-0.03055
-0.05768
-0.11398
-0.16782
-0.18332
-0.13605
-0.08176
-0.08157
-0.09995
-0.09592
-0.06976
-0.04547
-0.03409
-0.02429
-0.02295
-0.01544
0.02036
0.05319
0.05743
0.05206
0.06345
0.09381
0.11963
0.13022
0.13370
0.14240
0.16479
0.17831
0.17325
0.16211
0.13290
0.09149
0.06232
0.04288
0.01056
-0.05417
-0.12274
-0.15616
-0.16931
-0.16409
-0.12756
-0.08722
-0.06821
-0.05679
-0.01849
0.05048
0.10559
0.11697
0.11337
0.12564
0.13690
0.11914
0.06970
0.00058
-0.06799
-0.11279
-0.13690
-0.15387
-0.16446
-0.17523
-0.17712
-0.15463
-0.15277
-0.20145
-0.23752
-0.20660
-0.13788
-0.10043
-0.10474
-0.09271
-0.04730
0.00458
0.05859
0.11066
0.13937
0.14224
0.14471
0.15683
0.16052
0.15222
0.14529
0.15250
0.17001
0.16150
0.13138
0.13074
0.15985
0.19153
0.21841
0.23425
0.22937
0.18561
0.10580
0.03873
-0.00586
-0.07208
-0.15820
-0.22430
-0.26114
-0.28415
-0.29477
-0.28247
-0.25229
-0.21835
-0.17795
-0.11371
-0.03195
0.02158
0.02866
0.03128
0.06836
0.12750
0.16245
0.16092
0.15787
0.15445
0.12473
0.08282
0.04327
-0.00165
-0.03244
-0.03256
-0.03729
-0.09332
-0.17905
-0.21030
-0.16840
-0.11618
-0.09610
-0.09616
-0.07785
-0.03476
0.00525
0.02142
0.01996
0.02466
0.03775
0.05139
0.06879
0.07962
0.07727
0.07651
0.08594
0.09601
0.08661
0.06558
0.06708
0.08859
0.10956
0.12900
0.13785
0.13034
0.11526
0.09680
0.08078
0.06198
0.02271
-0.03717
-0.09616
-0.13028
-0.13333
-0.12097
-0.11349
-0.11255
-0.10242
-0.07581
-0.03662
0.00702
0.03119
0.04126
0.07376
0.11279
0.12732
0.11047
0.06174
0.01541
-0.00684
-0.02844
-0.05899
-0.08920
-0.09708
-0.07733
-0.07391
-0.11063
-0.15799
-0.17938
-0.16550
-0.13358
-0.11325
-0.12955
-0.14999
-0.12427
-0.07397
-0.02985
0.00989
0.04718
0.09232
0.13461
0.14859
0.14056
0.13123
0.13956
0.16315
0.16995
0.15182
0.13025
0.11798
0.12198
0.14499
0.17639
0.19476
0.18475
0.15100
0.09894
0.04080
-0.01193
-0.06934
-0.13492
-0.19876
-0.24472
-0.25653
-0.25101
-0.24576
-0.22577
-0.18903
-0.13974
-0.07327
-0.01083
0.02728
0.04831
0.06805
0.10532
0.14871
0.17136
0.16791
0.15042
0.14331
0.12796
0.07126
0.00244
-0.03314
-0.02798
-0.01459
-0.02686
-0.07291
-0.14285
-0.18478
-0.16226
-0.12271
-0.10986
-0.10901
-0.08832
-0.04297
-0.01138
-0.01569
-0.02893
-0.02887
-0.01547
-0.00320
-0.00452
-0.00406
0.00815
0.02335
0.04248
0.06442
0.07370
0.06604
0.06543
0.09402
0.13705
0.16537
0.17487
0.18137
0.18365
0.16519
0.14203
0.14066
0.12369
0.05408
-0.02823
-0.08871
-0.12689
-0.15146
-0.17761
-0.18954
-0.17297
-0.14804
-0.11755
-0.07428
-0.02719
0.00760
0.03662
0.08752
0.13840
0.14102
0.10159
0.07626
0.07739
0.04669
-0.02429
-0.07404
-0.08292
-0.07764
-0.08429
-0.11902
-0.16586
-0.19803
-0.20673
-0.18399
-0.14804
-0.14334
-0.15668
-0.13611
-0.07758
-0.01974
0.01379
0.04962
0.11462
0.17499
0.19159
0.18152
0.17929
0.18631
0.19214
0.19955
0.19522
0.15903
0.10553
0.07492
0.08392
0.10721
0.12299
0.13718
0.14343
0.12610
0.08994
0.04630
0.00369
-0.04642
-0.11609
-0.17957
-0.20596
-0.20825
-0.22092
-0.24011
-0.22754
-0.18503
-0.14221
-0.10379
-0.06708
-0.04083
-0.01877
0.02121
0.07187
0.10132
0.11221
0.13422
0.16626
0.17755
0.14609
0.09436
0.06888
0.07849
0.08948
0.07074
0.01575
-0.04633
-0.08286
-0.09647
-0.09875
-0.10620
-0.12381
-0.12234
-0.09378
-0.07465
-0.08093
-0.08878
-0.07632
-0.04959
-0.02609
-0.01324
-0.00989
-0.00217
0.02090
0.05243
0.07712
0.07959
0.07126
0.07855
0.09647
0.11789
0.14008
0.14670
0.14450
0.13876
0.11874
0.10425
0.10474
0.09247
0.05267
-0.00266
-0.04803
-0.08041
-0.11246
-0.13773
-0.14221
-0.12448
-0.10016
-0.07391
-0.04562
-0.02939
-0.00607
0.05002
0.10638
0.13354
0.13138
0.11603
0.10944
0.08972
0.03107
-0.04712
-0.10666
-0.12045
-0.10510
-0.10291
-0.12903
-0.16455
-0.18417
-0.18811
-0.17905
-0.16367
-0.16663
-0.17160
-0.14435
-0.10513
-0.07736
-0.05249
-0.01639
0.03824
0.09531
0.12604
0.12552
0.11313
0.11111
0.12872
0.15768
0.17224
0.15164
0.11780
0.10107
0.10184
0.12381
0.16159
0.18747
0.20129
0.20596
0.18234
0.14185
0.10547
0.05502
-0.02222
-0.09634
-0.14755
-0.18912
-0.22675
-0.26672
-0.30237
-0.29294
-0.24130
-0.20035
-0.16980
-0.12582
-0.07483
-0.02426
0.01730
0.04916
0.07898
0.11533
0.16446
0.20151
0.19055
0.14008
0.09845
0.09180
0.09531
0.07208
0.01819
-0.03680
-0.07379
-0.09937
-0.12387
-0.14246
-0.14499
-0.13049
-0.10730
-0.08337
-0.06400
-0.05603
-0.05133
-0.02551
0.01495
0.02414
0.00790
0.01169
0.03735
0.06491
0.08179
0.08353
0.07489
0.06165
0.04688
0.04501
0.06537
0.08496
0.08636
0.09076
0.10608
0.11804
0.12067
0.11502
0.10828
0.08801
0.03683
-0.01279
-0.03983
-0.07434
-0.11542
-0.12747
-0.10550
-0.08310
-0.08524
-0.09323
-0.06955
-0.01608
0.02805
0.05200
0.07611
0.09958
0.11618
0.12363
0.09702
0.03577
-0.01553
-0.02850
-0.01105
-0.00168
-0.03452
-0.08316
-0.10449
-0.10162
-0.10831
-0.12802
-0.13535
-0.13156
-0.13406
-0.13489
-0.12933
-0.12531
-0.11093
-0.07132
-0.00974
0.04407
0.06619
0.06952
0.07733
0.10211
0.13812
0.16510
0.16840
0.15326
0.13361
0.11984
0.12677
0.15289
0.16907
0.17148
0.17841
0.17438
0.14169
0.10178
0.06232
0.00916
-0.04761
-0.09158
-0.12564
-0.16626
-0.21463
-0.24231
-0.22824
-0.18973
-0.15833
-0.13559
-0.10168
-0.05099
0.00189
0.03391
0.04929
0.07550
0.11874
0.16293
0.19034
0.17789
0.12585
0.08545
0.07947
0.07703
0.04987
0.00757
-0.01654
-0.03085
-0.06412
-0.10449
-0.13113
-0.14288
-0.13681
-0.11206
-0.08652
-0.07584
-0.07541
-0.07050
-0.05118
-0.02960
-0.03091
-0.05197
-0.05960
-0.04944
-0.03729
-0.01901
0.00439
0.02264
0.02771
0.02222
0.03360
0.06650
0.09091
0.10599
0.12875
0.15125
0.15897
0.15845
0.16046
0.15649
0.13873
0.11264
0.07736
0.02719
-0.04047
-0.11182
-0.14981
-0.14783
-0.14124
-0.15167
-0.15817
-0.12582
-0.06784
-0.02682
-0.00073
0.03119
0.06964
0.11301
0.14108
0.12985
0.08182
0.02890
0.00940
0.01825
0.01352
-0.02399
-0.07288
-0.09967
-0.10831
-0.12595
-0.14828
-0.16324
-0.16452
-0.15994
-0.16910
-0.17819
-0.16699
-0.13766
-0.08337
-0.00543
0.06476
0.09717
0.10495
0.11938
0.13644
0.15359
0.17908
0.18787
0.16699
0.14035
0.11267
0.08920
0.09109
0.10797
0.11853
0.12167
0.12454
0.12592
0.10941
0.07291
0.03635
0.00964
-0.01956
-0.06198
-0.10895
-0.15302
-0.18631
-0.19424
-0.18436
-0.17795
-0.17548
-0.16168
-0.12158
-0.06284
-0.01733
0.00458
0.02655
0.07465
0.13873
0.18198
0.17877
0.15225
0.13376
0.11856
0.10428
0.08615
0.05820
0.03302
0.02039
0.00302
-0.03488
-0.08682
-0.13150
-0.14023
-0.12222
-0.12485
-0.15015
-0.16437
-0.16190
-0.14493
-0.12476
-0.11377
-0.10333
-0.09274
-0.08356
-0.06113
-0.02185
0.01117
0.02649
0.03967
0.05396
0.06677
0.08780
0.11600
0.13684
0.14572
0.14771
0.15042
0.15347
0.14114
0.12009
0.11588
0.12399
0.11774
0.07922
0.02182
-0.02185
-0.03879
-0.03418
-0.02612
-0.03366
-0.05310
-0.06741
-0.05920
-0.02908
-0.00708
0.00583
0.04315
0.10101
0.14215
0.14270
0.10992
0.06931
0.03763
0.01355
-0.01324
-0.05377
-0.10022
-0.12695
-0.12665
-0.12750
-0.14951
-0.17017
-0.17059
-0.15506
-0.13623
-0.13315
-0.14047
-0.13049
-0.10077
-0.06320
-0.01529
0.03073
0.05505
0.06677
0.08228
0.10007
0.11530
0.12744
0.13824
0.13672
0.11642
0.09943
0.10303
0.11780
0.12811
0.14609
0.18448
0.21899
0.22772
0.21075
0.18283
0.15387
0.10352
0.02744
-0.04718
-0.11176
-0.16806
-0.20947
-0.23987
-0.26318
-0.27628
-0.26935
-0.22729
-0.16983
-0.13547
-0.12784
-0.10892
-0.05408
0.01282
0.06107
0.08810
0.11243
0.13675
0.14496
0.14026
0.13034
0.10269
0.06656
0.04733
0.02664
-0.02512
-0.09390
-0.14175
-0.14771
-0.13202
-0.12668
-0.13306
-0.13232
-0.11914
-0.10257
-0.08026
-0.05307
-0.03375
-0.02188
-0.01047
0.00684
0.03281
0.05908
0.08609
0.11700
0.13589
0.13574
0.13043
0.12518
0.11438
0.09894
0.09512
0.11142
0.13068
0.13147
0.10947
0.10175
0.12857
0.13766
0.09995
0.04483
-0.00500
-0.04532
-0.07867
-0.11014
-0.13843
-0.15228
-0.13873
-0.10965
-0.09500
-0.10007
-0.09808
-0.05917
0.00928
0.06546
0.08289
0.06223
0.03403
0.02875
0.02621
0.01187
0.00116
-0.00677
-0.01617
-0.01886
-0.02658
-0.05856
-0.09491
-0.10660
-0.09927
-0.09268
-0.10196
-0.12527
-0.14163
-0.13242
-0.09695
-0.05463
-0.01569
0.02783
0.07391
0.09787
0.09561
0.10229
0.12451
0.14169
0.14944
0.14337
0.12561
0.10681
0.09018
0.08545
0.10184
0.12939
0.14984
0.14807
0.11902
0.07336
0.03369
0.01151
-0.01288
-0.05820
-0.11447
-0.16385
-0.19806
-0.22748
-0.25952
-0.27267
-0.25064
-0.20093
-0.15228
-0.13162
-0.12131
-0.08801
-0.02408
0.05234
0.11548
0.14954
0.15991
0.16623
0.17105
0.16516
0.14032
0.10510
0.09003
0.10229
0.10715
0.07550
0.02942
-0.00089
-0.01160
-0.00586
-0.00510
-0.02835
-0.05585
-0.06076
-0.04828
-0.03833
-0.03107
-0.02747
-0.03323
-0.04175
-0.04871
-0.05029
-0.04224
-0.03287
-0.02417
-0.00885
-0.00308
-0.01111
-0.00815
0.00659
0.02417
0.05426
0.08841
0.10696
0.11246
0.11218
0.11264
0.12430
0.13922
0.12784
0.08423
0.03815
0.00430
-0.03540
-0.08975
-0.13861
-0.15955
-0.15793
-0.15265
-0.15137
-0.15881
-0.15665
-0.10977
-0.02493
0.05731
0.11206
0.13156
0.13373
0.14725
0.15857
0.14474
0.11957
0.09885
0.07248
0.03610
-0.00699
-0.05685
-0.09601
-0.11322
-0.11343
-0.10785
-0.11942
-0.15121
-0.17294
-0.16452
-0.13824
-0.10797
-0.07513
-0.04141
-0.01331
0.00781
0.02979
0.06052
0.09421
0.00000
0.00000
0.00000
0.00000
0.00000
0.00000
0.00000
0.00000
0.00000
0.00000
0.00000
0.00000
0.00000
0.00000
0.00000
0.00000
0.00000
0.00000
0.00000
0.00000
0.00000
0.00000
0.00000
0.00000
0.00000
0.00000
0.00000
0.00000
0.00000
0.00000
0.00000
0.00000
0.00000
0.00000
0.00000
0.00000
0.00000
0.00000
0.00000
0.00000
0.00000
0.00000
0.00000
0.00000
0.00000
0.00000
0.00000
0.00000
0.00000
0.00000
0.00000
0.00000
0.00000
0.00000
0.00000
0.00000
0.00000
0.00000
0.00000
0.00000
0.00000
0.00000
0.00000
0.00000
0.00000
0.00000
0.00000
0.00000
0.00000
0.00000
0.00000
0.00000
0.00000
0.00000
0.00000
0.00000
0.00000
0.00000
0.00000
0.00000
0.00000
0.00000
0.00000
0.00000
0.00000
0.00000
0.00000
0.00000
0.00000
0.00000
0.00000
0.00000
0.00000
0.00000
0.00000
0.00000
0.00000
0.00000
0.00000
0.00000
0.00000
0.00000
0.00000
0.00000
0.00000
0.00000
0.00000
0.00000
0.00000
0.00000
0.00000
0.00000
0.00000
0.00000
0.00000
0.00000
0.00000
0.00000
0.00000
0.00000
0.00000
0.00000
0.00000
0.00000
0.00000
0.00000
0.00000
0.00000
0.00000
0.00000
0.00000
0.00000
0.00000
0.00000
0.00000
0.00000
0.00000
0.00000
0.00000
0.00000
0.00000
0.00000
0.00000
0.00000
0.00000
0.00000
0.00000
0.00000
0.00000
0.00000
0.00000
0.00000
0.00000
0.00000
0.00000
0.00000
0.00000
0.00000
0.00000
0.00000
0.00000
0.00000
0.00000
0.00000
0.00000
0.00000
0.00000
0.00000
0.00000
0.00000
0.00000
0.00000
0.00000
0.00000
0.00000
0.00000
0.00000
0.00000
0.00000
0.00000
0.00000
0.00000
0.00000
0.00000
0.00000
0.00000
0.00000
0.00000
0.00000
0.00000
0.00000
0.00000
0.00000
0.00000
0.00000
0.00000
0.00000
0.00000
0.00000
0.00000
0.00000
0.00000
0.00000
0.00000
0.00000
0.00000
0.00000
0.00000
0.00000
0.00000
0.00000
0.00000
0.00000
0.00000
0.00000
0.00000
0.00000
0.00000
0.00000
0.00000
0.00000
0.00000
0.00000
0.00000
0.00000
0.00000
0.00000
0.00000
0.00000
0.00000
0.00000
0.00000
0.00000
0.00000
0.00000
0.00000
0.00000
0.00000
0.00000
0.00000
0.00000
0.00000
0.00000
0.00000
0.00000
0.00000
0.00000
0.00000
0.00000
0.00000
0.00000
0.00000
0.00000
0.00000
0.00000
0.00000
0.00000
0.00000
0.00000
0.00000
0.00000
0.00000
0.00000
0.00000
0.00000
0.00000
0.00000
0.00000
0.00000
0.00000
0.00000
0.00000
0.00000
0.00000
0.00000
0.00000
0.00000
0.00000
0.00000
0.00000
0.00000
0.00000
0.00000
0.00000
0.00000
0.00000
0.00000
0.00000
0.00000
0.00000
0.00000
0.00000
0.00000
0.00000
0.00000
0.00000
0.00000
0.00000
0.00000
0.00000
0.00000
0.00000
0.00000
0.00000
0.00000
0.00000
0.00000
0.00000
0.00000
0.00000
0.00000
0.00000
0.00000
0.00000
0.00000
0.00000
0.00000
0.00000
0.00000
0.00000
0.00000
0.00000
0.00000
0.00000
0.00000
0.00000
0.00000
0.00000
0.00000
0.00000
0.00000
0.00000
0.00000
0.00000
0.00000
0.00000
0.00000
0.00000
0.00000
0.00000
0.00000
0.00000
0.00000
0.00000
0.00000
0.00000
0.00000
0.00000
0.00000
0.00000
0.00000
0.00000
0.00000
0.00000
0.00000
0.00000
0.00000
0.00000
0.00000
0.00000
0.00000
0.00000
0.00000
0.00000
0.00000
0.00000
0.00000
0.00000
0.00000
0.00000
0.00000
0.00000
0.00000
0.00000
0.00000
0.00000
0.00000
0.00000
0.00000
0.00000
0.00000
0.00000
0.00000
0.00000
0.00000
0.00000
0.00000
0.00000
0.00000
0.00000
0.00000
0.00000
0.00000
0.00000
0.00000
0.00000
0.00000
0.00000
0.00000
0.00000
0.00000
0.00000
0.00000
0.00000
0.00000
0.00000
0.00000
0.00000
0.00000
0.00000
0.00000
0.00000
0.00000
0.00000
0.00000
0.00000
0.00000
0.00000
0.00000
0.00000
0.00000
0.00000
0.00000
0.00000
0.00000
0.00000
0.00000
0.00000
0.00000
0.00000
0.00000
0.00000
0.00000
0.00000
0.00000
0.00000
0.00000
0.00000
0.00000
0.00000
0.00000
0.00000
0.00000
0.00000
0.00000
0.00000
0.00000
0.00000
0.00000
0.00000
0.00000
0.00000
0.00000
0.00000
0.00000
0.00000
0.00000
0.00000
0.00000
0.00000
0.00000
0.00000
0.00000
0.00000
0.00000
0.00000
0.00000
0.00000
0.00000
0.00000
0.00000
0.00000
0.00000
0.00000
0.00000
0.00000
0.00000
0.00000
0.00000
0.00000
0.00000
0.00000
0.00000
0.00000
0.00000
0.00000
0.00000
0.00000
0.00000
0.00000
0.00000
0.00000
0.00000
0.00000
0.00000
0.00000
0.00000
0.00000
0.00000
0.00000
0.00000
0.00000
0.00000
0.00000
0.00000
0.00000
0.00000
0.00000
0.00000
0.00000
0.00000
0.00000
0.00000
0.00000
0.00000
0.00000
0.00000
0.00000
0.00000
0.00000
0.00000
0.00000
0.00000
0.00000
0.00000
0.00000
0.00000
0.00000
0.00000
0.00000
0.00000
0.00000
0.00000
0.00000
0.00000
0.00000
0.00000
0.00000
0.00000
0.00000
0.00000
0.00000
0.00000
0.00000
0.00000
0.00000
0.00000
0.00000
0.00000
0.00000
0.00000
0.00000
0.00000
0.00000
0.00000
0.00000
0.00000
0.00000
0.00000
0.00000
0.00000
0.00000
0.00000
0.00000
0.00000
0.00000
0.00000
0.00000
0.00000
0.00000
0.00000
0.00000
0.00000
0.00000
0.00000
0.00000
0.00000
0.00000
0.00000
0.00000
0.00000
0.00000
0.00000
0.00000
0.00000
0.00000
0.00000
0.00000
0.00000
0.00000
0.00000
0.00000
0.00000
0.00000
0.00000
0.00000
0.00000
0.00000
0.00000
0.00000
0.00000
0.00000
0.00000
0.00000
0.00000
0.00000
0.00000
0.00000
0.00000
0.00000
0.00000
0.00000
0.00000
0.00000
0.00000
0.00000
0.00000
0.00000
0.00000
0.00000
0.00000
0.00000
0.00000
0.00000
0.00000
0.00000
0.00000
0.00000
0.00000
0.00000
0.00000
0.00000
0.00000
0.00000
0.00000
0.00000
0.00000
0.00000
0.00000
0.00000
0.00000
0.00000
0.00000
0.00000
0.00000
0.00000
0.00000
0.00000
0.00000
0.00000
0.00000
0.00000
0.00000
0.00000
0.00000
0.00000
0.00000
0.00000
0.00000
0.00000
0.00000
0.00000
0.00000
0.00000
0.00000
0.00000
0.00000
0.00000
0.00000
0.00000
0.00000
0.00000
0.00000
0.00000
0.00000
0.00000
0.00000
0.00000
0.00000
0.00000
0.00000
0.00000
0.00000
0.00000
0.00000
0.00000
0.00000
0.00000
0.00000
0.00000
0.00000
0.00000
0.00000
0.00000
0.00000
0.00000
0.00000
0.00000
0.00000
0.00000
0.00000
0.00000
0.00000
0.00000
0.00000
0.00000
0.00000
0.00000
0.00000
0.00000
0.00000
0.00000
0.00000
0.00000
0.00000
0.00000
0.00000
0.00000
0.00000
0.00000
0.00000
0.00000
0.00000
0.00000
0.00000
0.00000
0.00000
0.00000
0.00000
0.00000
0.00000
0.00000
0.00000
0.00000
0.00000
0.00000
0.00000
0.00000
0.00000
0.00000
0.00000
0.00000
0.00000
0.00000
0.00000
0.00000
0.00000
0.00000
0.00000
0.00000
0.00000
0.00000
0.00000
0.00000
0.00000
0.00000
0.00000
0.00000
0.00000
0.00000
0.00000
0.00000
0.00000
0.00000
0.00000
0.00000
0.00000
0.00000
0.00000
0.00000
0.00000
0.00000
0.00000
0.00000
0.00000
0.00000
0.00000
0.00000
0.00000
0.00000
0.00000
0.00000
0.00000
0.00000
0.00000
0.00000
0.00000
0.00000
0.00000
0.00000
0.00000
0.00000
0.00000
0.00000
0.00000
0.00000
0.00000
0.00000
0.00000
0.00000
0.00000
0.00000
0.00000
0.00000
0.00000
0.00000
0.00000
0.00000
0.00000
0.00000
0.00000
0.00000
0.00000
0.00000
0.00000
0.00000
0.00000
0.00000
0.00000
0.00000
0.00000
0.00000
0.00000
0.00000
0.00000
0.00000
0.00000
0.00000
0.00000
0.00000
0.00000
0.00000
0.00000
0.00000
0.00000
0.00000
0.00000
0.00000
0.00000
0.00000
0.00000
0.00000
0.00000
0.00000
0.00000
0.00000
0.00000
0.00000
0.00000
0.00000
0.00000
0.00000
0.00000
0.00000
0.00000
0.00000
0.00000
0.00000
0.00000
0.00000
0.00000
0.00000
0.00000
0.00000
0.00000
0.00000
0.00000
0.00000
0.00000
0.00000
0.00000
0.00000
0.00000
0.00000
0.00000
0.00000
0.00000
0.00000
0.00000
0.00000
0.00000
0.00000
0.00000
0.00000
0.00000
0.00000
0.00000
0.00000
0.00000
0.00000
0.00000
0.00000
0.00000
0.00000
0.00000
0.00000
0.00000
0.00000
0.00000
0.00000
0.00000
0.00000
0.00000
0.00000
0.00000
0.00000
0.00000
0.00000
0.00000
0.00000
0.00000
0.00000
0.00000
0.00000
0.00000
0.00000
0.00000
0.00000
0.00000
0.00000
0.00000
0.00000
0.00000
0.00000
0.00000
0.00000
0.00000
0.00000
0.00000
0.00000
0.00000
0.00000
0.00000
0.00000
0.00000
0.00000
0.00000
0.00000
0.00000
0.00000
0.00000
0.00000
0.00000
0.00000
0.00000
0.00000
0.00000
0.00000
0.00000
0.00000
0.00000
0.00000
0.00000
0.00000
0.00000
0.00000
0.00000
0.00000
0.00000
0.00000
0.00000
0.00000
0.00000
0.00000
0.00000
0.00000
0.00000
0.00000
0.00000
0.00000
0.00000
0.00000
0.00000
0.00000
0.00000
0.00000
0.00000
0.00000
0.00000
0.00000
0.00000
0.00000
0.00000
0.00000
0.00000
0.00000
0.00000
0.00000
0.00000
0.00000
0.00000
0.00000
0.00000
0.00000
0.00000
0.00000
0.00000
0.00000
0.00000
0.00000
0.00000
0.00000
0.00000
0.00000
0.00000
0.00000
0.00000
0.00000
0.00000
0.00000
0.00000
0.00000
0.00000
0.00000
0.00000
0.00000
0.00000
0.00000
0.00000
0.00000
0.00000
0.00000
0.00000
0.00000
0.00000
0.00000
0.00000
0.00000
0.00000
0.00000
0.00000
0.00000
0.00000
0.00000
0.00000
0.00000
0.00000
0.00000
0.00000
0.00000
0.00000
0.00000
0.00000
0.00000
0.00000
0.00000
0.00000
0.00000
0.00000
0.00000
0.00000
0.00000
0.00000
0.00000
0.00000
0.00000
0.00000
0.00000
0.00000
0.00000
0.00000
0.00000
0.00000
0.00000
0.00000
0.00000
0.00000
0.00000
0.00000
0.00000
0.00000
0.00000
0.00000
0.00000
0.00000
0.00000
0.00000
0.00000
0.00000
0.00000
0.00000
0.00000
0.00000
0.00000
0.00000
0.00000
0.00000
0.00000
0.00000
0.00000
0.00000
0.00000
0.00000
0.00000
0.00000
0.00000
0.00000
0.00000
0.00000
0.00000
0.00000
0.00000
0.00000
0.00000
0.00000
0.00000
0.00000
0.00000
0.00000
0.00000
0.00000
0.00000
0.00000
0.00000
0.00000
0.00000
0.00000
0.00000
0.00000
0.00000
0.00000
0.00000
0.00000
0.00000
0.00000
0.00000
0.00000
0.00000
0.00000
0.00000
0.00000
0.00000
0.00000
0.00000
0.00000
0.00000
0.00000
0.00000
0.00000
0.00000
0.00000
0.00000
0.00000
0.00000
0.00000
0.00000
0.00000
0.00000
0.00000
0.00000
0.00000
0.00000
0.00000
0.00000
0.00000
0.00000
0.00000
0.00000
0.00000
0.00000
0.00000
0.00000
0.00000
0.00000
0.00000
0.00000
0.00000
0.00000
0.00000
0.00000
0.00000
0.00000
0.00000
0.00000
0.00000
0.00000
0.00000
0.00000
0.00000
0.00000
0.00000
0.00000
0.00000
0.00000
0.00000
0.00000
0.00000
0.00000
0.00000
0.00000
0.00000
0.00000
0.00000
0.00000
0.00000
0.00000
0.00000
0.00000
0.00000
0.00000
0.00000
0.00000
0.00000
0.00000
0.00000
0.00000
0.00000
0.00000
0.00000
0.00000
0.00000
0.00000
0.00000
0.00000
0.00000
0.00000
0.00000
0.00000
0.00000
0.00000
0.00000
0.00000
0.00000
0.00000
0.00000
0.00000
0.00000
0.00000
0.00000
0.00000
0.00000
0.00000
0.00000
0.00000
0.00000
0.00000
0.00000
0.00000
0.00000
0.00000
0.00000
0.00000
0.00000
0.00000
0.00000
0.00000
0.00000
0.00000
0.00000
0.00000
0.00000
0.00000
0.00000
0.00000
0.00000
0.00000
0.00000
0.00000
0.00000
0.00000
0.00000
0.00000
0.00000
0.00000
0.00000
0.00000
0.00000
0.00000
0.00000
0.00000
0.00000
0.00000
0.00000
0.00000
0.00000
0.00000
0.00000
0.00000
0.00000
0.00000
0.00000
0.00000
0.00000
0.00000
0.00000
0.00000
0.00000
0.00000
0.00000
0.00000
0.00000
0.00000
0.00000
0.00000
0.00000
0.00000
0.00000
0.00000
0.00000
0.00000
0.00000
0.00000
0.00000
0.00000
0.00000
0.00000
0.00000
0.00000
0.00000
0.00000
0.00000
0.00000
0.00000
0.00000
0.00000
0.00000
0.00000
0.00000
0.00000
0.00000
0.00000
0.00000
0.00000
0.00000
0.00000
0.00000
0.00000
0.00000
0.00000
0.00000
0.00000
0.00000
0.00000
0.00000
0.00000
0.00000
0.00000
0.00000
0.00000
0.00000
0.00000
0.00000
0.00000
0.00000
0.00000
0.00000
0.00000
0.00000
0.00000
0.00000
0.00000
0.00000
0.00000
0.00000
0.00000
0.00000
0.00000
0.00000
0.00000
0.00000
0.00000
0.00000
0.00000
0.00000
0.00000
0.00000
0.00000
0.00000
0.00000
0.00000
0.00000
0.00000
0.00000
0.00000
0.00000
0.00000
0.00000
0.00000
0.00000
0.00000
0.00000
0.00000
0.00000
0.00000
0.00000
0.00000
0.00000
0.00000
0.00000
0.00000
0.00000
0.00000
0.00000
0.00000
0.00000
0.00000
0.00000
0.00000
0.00000
0.00000
0.00000
0.00000
0.00000
0.00000
0.00000
0.00000
0.00000
0.00000
0.00000
0.00000
0.00000
0.00000
0.00000
0.00000
0.00000
0.00000
0.00000
0.00000
0.00000
0.00000
0.00000
0.00000
0.00000
0.00000
0.00000
0.00000
0.00000
0.00000
0.00000
0.00000
0.00000
0.00000
0.00000
0.00000
0.00000
0.00000
0.00000
0.00000
0.00000
0.00000
0.00000
0.00000
0.00000
0.00000
0.00000
0.00000
0.00000
0.00000
0.00000
0.00000
0.00000
0.00000
0.00000
0.00000
0.00000
0.00000
0.00000
0.00000
0.00000
0.00000
0.00000
0.00000
0.00000
0.00000
0.00000
0.00000
0.00000
0.00000
0.00000
0.00000
0.00000
0.00000
0.00000
0.00000
0.00000
0.00000
0.00000
0.00000
0.00000
0.00000
0.00000
0.00000
0.00000
0.00000
0.00000
0.00000
0.00000
0.00000
0.00000
0.00000
0.00000
0.00000
0.00000
0.00000
0.00000
0.00000
0.00000
0.00000
0.00000
0.00000
0.00000
0.00000
0.00000
0.00000
0.00000
0.00000
0.00000
0.00000
0.00000
0.00000
0.00000
0.00000
0.00000
0.00000
0.00000
0.00000
0.00000
0.00000
0.00000
0.00000
0.00000
0.00000
0.00000
0.00000
0.00000
0.00000
0.00000
0.00000
0.00000
0.00000
0.00000
0.00000
0.00000
0.00000
0.00000
0.00000
0.00000
0.00000
0.00000
0.00000
0.00000
0.00000
0.00000
0.00000
0.00000
0.00000
0.00000
0.00000
0.00000
0.00000
0.00000
0.00000
0.00000
0.00000
0.00000
0.00000
0.00000
0.00000
0.00000
0.00000
0.00000
0.00000
0.00000
0.00000
0.00000
0.00000
0.00000
0.00000
0.00000
0.00000
0.00000
0.00000
0.00000
0.00000
0.00000
0.00000
0.00000
0.00000
0.00000
0.00000
0.00000
0.00000
0.00000
0.00000
0.00000
0.00000
0.00000
0.00000
0.00000
0.00000
0.00000
0.00000
0.00000
0.00000
0.00000
0.00000
0.00000
0.00000
0.00000
0.00000
0.00000
0.00000
0.00000
0.00000
0.00000
0.00000
0.00000
0.00000
0.00000
0.00000
0.00000
0.00000
0.00000
0.00000
0.00000
0.00000
0.00000
0.00000
0.00000
0.00000
0.00000
0.00000
0.00000
0.00000
0.00000
0.00000
0.00000
0.00000
0.00000
0.00000
0.00000
0.00000
0.00000
0.00000
0.00000
0.00000
0.00000
0.00000
0.00000
0.00000
0.00000
0.00000
0.00000
0.00000
0.00000
0.00000
0.00000
0.00000
0.00000
0.00000
0.00000
0.00000
0.00000
0.00000
0.00000
0.00000
0.00000
0.00000
0.00000
0.00000
0.00000
0.00000
0.00000
0.00000
0.00000
0.00000
0.00000
0.00000
0.00000
0.00000
0.00000
0.00000
0.00000
0.00000
0.00000
0.00000
0.00000
0.00000
0.00000
0.00000
0.00000
0.00000
0.00000
0.00000
0.00000
0.00000
0.00000
0.00000
0.00000
0.00000
0.00000
0.00000
0.00000
0.00000
0.00000
0.00000
0.00000
0.00000
0.00000
0.00000
0.00000
0.00000
0.00000
0.00000
0.00000
0.00000
0.00000
0.00000
0.00000
0.00000
0.00000
0.00000
0.00000
0.00000
0.00000
0.00000
0.00000
0.00000
0.00000
0.00000
0.00000
0.00000
0.00000
0.00000
0.00000
0.00000
0.00000
0.00000
0.00000
0.00000
0.00000
0.00000
0.00000
0.00000
0.00000
0.00000
0.00000
0.00000
0.00000
0.00000
0.00000
0.00000
0.00000
0.00000
0.00000
0.00000
0.00000
0.00000
0.00000
0.00000
0.00000
0.00000
0.00000
0.00000
0.00000
0.00000
0.00000
0.00000
0.00000
0.00000
0.00000
0.00000
0.00000
0.00000
0.00000
0.00000
0.00000
0.00000
0.00000
0.00000
0.00000
0.00000
0.00000
0.00000
0.00000
0.00000
0.00000
0.00000
0.00000
0.00000
0.00000
0.00000
0.00000
0.00000
0.00000
0.00000
0.00000
0.00000
0.00000
0.00000
0.00000
0.00000
0.00000
0.00000
0.00000
0.00000
0.00000
0.00000
0.00000
0.00000
0.00000
0.00000
0.00000
0.00000
0.00000
0.00000
0.00000
0.00000
0.00000
0.00000
0.00000
0.00000
0.00000
0.00000
0.00000
0.00000
0.00000
0.00000
0.00000
0.00000
0.00000
0.00000
0.00000
0.00000
0.00000
0.00000
0.00000
0.00000
0.00000
0.00000
0.00000
0.00000
0.00000
0.00000
0.00000
0.00000
0.00000
0.00000
0.00000
0.00000
0.00000
0.00000
0.00000
0.00000
0.00000
0.00000
0.00000
0.00000
0.00000
0.00000
0.00000
0.00000
0.00000
0.00000
0.00000
0.00000
0.00000
0.00000
0.00000
0.00000
0.00000
0.00000
0.00000
0.00000
0.00000
0.00000
0.00000
0.00000
0.00000
0.00000
0.00000
0.00000
0.00000
0.00000
0.00000
0.00000
0.00000
0.00000
0.00000
0.00000
0.00000
0.00000
0.00000
0.00000
0.00000
0.00000
0.00000
0.00000
0.00000
0.00000
0.00000
0.00000
0.00000
0.00000
0.00000
0.00000
0.00000
0.00000
0.00000
0.00000
0.00000
0.00000
0.00000
0.00000
0.00000
0.00000
0.00000
0.00000
0.00000
0.00000
0.00000
0.00000
0.00000
0.00000
0.00000
0.00000
0.00000
0.00000
0.00000
0.00000
0.00000
0.00000
0.00000
0.00000
0.00000
0.00000
0.00000
0.00000
0.00000
0.00000
0.00000
0.00000
0.00000
0.00000
0.00000
0.00000
0.00000
0.00000
0.00000
0.00000
0.00000
0.00000
0.00000
0.00000
0.00000
0.00000
0.00000
0.00000
0.00000
0.00000
0.00000
0.00000
0.00000
0.00000
0.00000
0.00000
0.00000
0.00000
0.00000
0.00000
0.00000
0.00000
0.00000
0.00000
0.00000
0.00000
0.00000
0.00000
0.00000
0.00000
0.00000
0.00000
0.00000
0.00000
0.00000
0.00000
0.00000
0.00000
0.00000
0.00000
0.00000
0.00000
0.00000
0.00000
0.00000
0.00000
0.00000
0.00000
0.00000
0.00000
0.00000
0.00000
0.00000
0.00000
0.00000
0.00000
0.00000
0.00000
0.00000
0.00000
0.00000
0.00000
0.00000
0.00000
0.00000
0.00000
0.00000
0.00000
0.00000
0.00000
0.00000
0.00000
0.00000
0.00000
0.00000
0.00000
0.00000
0.00000
0.00000
0.00000
0.00000
0.00000
0.00000
0.00000
0.00000
0.00000
0.00000
0.00000
0.00000
0.00000
0.00000
0.00000
0.00000
0.00000
0.00000
0.00000
0.00000
0.00000
0.00000
0.00000
0.00000
0.00000
0.00000
0.00000
0.00000
0.00000
0.00000
0.00000
0.00000
0.00000
0.00000
0.00000
0.00000
0.00000
0.00000
0.00000
0.00000
0.00000
0.00000
0.00000
0.00000
0.00000
0.00000
0.00000
0.00000
0.00000
0.00000
0.00000
0.00000
0.00000
0.00000
0.00000
0.00000
0.00000
0.00000
0.00000
0.00000
0.00000
0.00000
0.00000
0.00000
0.00000
0.00000
0.00000
0.00000
0.00000
0.00000
0.00000
0.00000
0.00000
0.00000
0.00000
0.00000
0.00000
0.00000
0.00000
0.00000
0.00000
0.00000
0.00000
0.00000
0.00000
0.00000
0.00000
0.00000
0.00000
0.00000
0.00000
0.00000
0.00000
0.00000
0.00000
0.00000
0.00000
0.00000
0.00000
0.00000
0.00000
0.00000
0.00000
0.00000
0.00000
0.00000
0.00000
0.00000
0.00000
0.00000
0.00000
0.00000
0.00000
0.00000
0.00000
0.00000
0.00000
0.00000
0.00000
0.00000
0.00000
0.00000
0.00000
0.00000
0.00000
0.00000
0.00000
0.00000
0.00000
0.00000
0.00000
0.00000
0.00000
0.00000
0.00000
0.00000
0.00000
0.00000
0.00000
0.00000
0.00000
0.00000
0.00000
0.00000
0.00000
0.00000
0.00000
0.00000
0.00000
0.00000
0.00000
0.00000
0.00000
0.00000
0.00000
0.00000
0.00000
0.00000
0.00000
0.00000
0.00000
0.00000
0.00000
0.00000
0.00000
0.00000
0.00000
0.00000
0.00000
0.00000
0.00000
0.00000
0.00000
0.00000
0.00000
0.00000
0.00000
0.00000
0.00000
0.00000
0.00000
0.00000
0.00000
0.00000
0.00000
0.00000
0.00000
0.00000
0.00000
0.00000
0.00000
0.00000
0.00000
0.00000
0.00000
0.00000
0.00000
0.00000
0.00000
0.00000
0.00000
0.00000
0.00000
0.00000
0.00000
0.00000
0.00000
0.00000
0.00000
0.00000
0.00000
0.00000
0.00000
0.00000
0.00000
0.00000
0.00000
0.00000
0.00000
0.00000
0.00000
0.00000
0.00000
0.00000
0.00000
0.00000
0.00000
0.00000
0.00000
0.00000
0.00000
0.00000
0.00000
0.00000
0.00000
0.00000
0.00000
0.00000
0.00000
0.00000
0.00000
0.00000
0.00000
0.00000
0.00000
0.00000
0.00000
0.00000
0.00000
0.00000
0.00000
0.00000
0.00000
0.00000
0.00000
0.00000
0.00000
0.00000
0.00000
0.00000
0.00000
0.00000
0.00000
0.00000
0.00000
0.00000
0.00000
0.00000
0.00000
0.00000
0.00000
0.00000
0.00000
0.00000
0.00000
0.00000
0.00000
0.00000
0.00000
0.00000
0.00000
0.00000
0.00000
0.00000
0.00000
0.00000
0.00000
0.00000
0.00000
0.00000
0.00000
0.00000
0.00000
0.00000
0.00000
0.00000
0.00000
0.00000
0.00000
0.00000
0.00000
0.00000
0.00000
0.00000
0.00000
0.00000
0.00000
0.00000
0.00000
0.00000
0.00000
0.00000
0.00000
0.00000
0.00000
0.00000
0.00000
0.00000
0.00000
0.00000
0.00000
0.00000
0.00000
0.00000
0.00000
0.00000
0.00000
0.00000
0.00000
0.00000
0.00000
0.00000
0.00000
0.00000
0.00000
0.00000
0.00000
0.00000
0.00000
0.00000
0.00000
0.00000
0.00000
0.00000
0.00000
0.00000
0.00000
0.00000
0.00000
0.00000
0.00000
0.00000
0.00000
0.00000
0.00000
0.00000
0.00000
0.00000
0.00000
0.00000
0.00000
0.00000
0.00000
0.00000
0.00000
0.00000
0.00000
0.00000
0.00000
0.00000
0.00000
0.00000
0.00000
0.00000
0.00000
0.00000
0.00000
0.00000
0.00000
0.00000
0.00000
0.00000
0.00000
0.00000
0.00000
0.00000
0.00000
0.00000
0.00000
0.00000
0.00000
0.00000
0.00000
0.00000
0.00000
0.00000
0.00000
0.00000
0.00000
0.00000
0.00000
0.00000
0.00000
0.00000
0.00000
0.00000
0.00000
0.00000
0.00000
0.00000
0.00000
0.00000
0.00000
0.00000
0.00000
0.00000
0.00000
0.00000
0.00000
0.00000
0.00000
0.00000
0.00000
0.00000
0.00000
0.00000
0.00000
0.00000
0.00000
0.00000
0.00000
0.00000
0.00000
0.00000
0.00000
0.00000
0.00000
0.00000
0.00000
0.00000
0.00000
0.00000
0.00000
0.00000
0.00000
0.00000
0.00000
0.00000
0.00000
0.00000
0.00000
0.00000
0.00000
0.00000
0.00000
0.00000
0.00000
0.00000
0.00000
0.00000
0.00000
0.00000
0.00000
0.00000
0.00000
0.00000
0.00000
0.00000
0.00000
0.00000
0.00000
0.00000
0.00000
0.00000
0.00000
0.00000
0.00000
0.00000
0.00000
0.00000
0.00000
0.00000
0.00000
0.00000
0.00000
0.00000
0.00000
0.00000
0.00000
0.00000
0.00000
0.00000
0.00000
0.00000
0.00000
0.00000
0.00000
0.00000
0.00000
0.00000
0.00000
0.00000
0.00000
0.00000
0.00000
0.00000
0.00000
0.00000
0.00000
0.00000
0.00000
0.00000
0.00000
0.00000
0.00000
0.00000
0.00000
0.00000
0.00000
0.00000
0.00000
0.00000
0.00000
0.00000
0.00000
0.00000
0.00000
0.00000
0.00000
0.00000
0.00000
0.00000
0.00000
0.00000
0.00000
0.00000
0.00000
0.00000
0.00000
0.00000
0.00000
0.00000
0.00000
0.00000
0.00000
0.00000
0.00000
0.00000
0.00000
0.00000
0.00000
0.00000
0.00000
0.00000
0.00000
0.00000
0.00000
0.00000
0.00000
0.00000
0.00000
0.00000
0.00000
0.00000
0.00000
0.00000
0.00000
0.00000
0.00000
0.00000
0.00000
0.00000
0.00000
0.00000
0.00000
0.00000
0.00000
0.00000
0.00000
0.00000
0.00000
0.00000
0.00000
0.00000
0.00000
0.00000
0.00000
0.00000
0.00000
0.00000
0.00000
0.00000
0.00000
0.00000
0.00000
0.00000
0.00000
0.00000
0.00000
0.00000
0.00000
0.00000
0.00000
0.00000
0.00000
0.00000
0.00000
0.00000
0.00000
0.00000
0.00000
0.00000
0.00000
0.00000
0.00000
0.00000
0.00000
0.00000
0.00000
0.00000
0.00000
0.00000
0.00000
0.00000
0.00000
0.00000
0.00000
0.00000
0.00000
0.00000
0.00000
0.00000
0.00000
0.00000
0.00000
0.00000
0.00000
0.00000
0.00000
0.00000
0.00000
0.00000
0.00000
0.00000
0.00000
0.00000
0.00000
0.00000
0.00000
0.00000
0.00000
0.00000
0.00000
0.00000
0.00000
0.00000
0.00000
0.00000
0.00000
0.00000
0.00000
0.00000
0.00000
0.00000
0.00000
0.00000
0.00000
0.00000
0.00000
0.00000
0.00000
0.00000
0.00000
0.00000
0.00000
0.00000
0.00000
0.00000
0.00000
0.00000
0.00000
0.00000
0.00000
0.00000
0.00000
0.00000
0.00000
0.00000
0.00000
0.00000
0.00000
0.00000
0.00000
0.00000
0.00000
0.00000
0.00000
0.00000
0.00000
0.00000
0.00000
0.00000
0.00000
0.00000
0.00000
0.00000
0.00000
0.00000
0.00000
0.00000
0.00000
0.00000
0.00000
0.00000
0.00000
0.00000
0.00000
0.00000
0.00000
0.00000
0.00000
0.00000
0.00000
0.00000
0.00000
0.00000
0.00000
0.00000
0.00000
0.00000
0.00000
0.00000
0.00000
0.00000
0.00000
0.00000
0.00000
0.00000
0.00000
0.00000
0.00000
0.00000
0.00000
0.00000
0.00000
0.00000
0.00000
0.00000
0.00000
0.00000
0.00000
0.00000
0.00000
0.00000
0.00000
0.00000
0.00000
0.00000
0.00000
0.00000
0.00000
0.00000
0.00000
0.00000
0.00000
0.00000
0.00000
0.00000
0.00000
0.00000
0.00000
0.00000
0.00000
0.00000
0.00000
0.00000
0.00000
0.00000
0.00000
0.00000
0.00000
0.00000
0.00000
0.00000
0.00000
0.00000
0.00000
0.00000
0.00000
0.00000
0.00000
0.00000
0.00000
0.00000
0.00000
0.00000
0.00000
0.00000
0.00000
0.00000
0.00000
0.00000
0.00000
0.00000
0.00000
0.00000
0.00000
0.00000
0.00000
0.00000
0.00000
0.00000
0.00000
0.00000
0.00000
0.00000
0.00000
0.00000
0.00000
0.00000
0.00000
0.00000
0.00000
0.00000
0.00000
0.00000
0.00000
0.00000
0.00000
0.00000
0.00000
0.00000
0.00000
0.00000
0.00000
0.00000
0.00000
0.00000
0.00000
0.00000
0.00000
0.00000
0.00000
0.00000
0.00000
0.00000
0.00000
0.00000
0.00000
0.00000
0.00000
0.00000
0.00000
0.00000
0.00000
0.00000
0.00000
0.00000
0.00000
0.00000
0.00000
0.00000
0.00000
0.00000
0.00000
0.00000
0.00000
0.00000
0.00000
0.00000
0.00000
0.00000
0.00000
0.00000
0.00000
0.00000
0.00000
0.00000
0.00000
0.00000
0.00000
0.00000
0.00000
0.00000
0.00000
0.00000
0.00000
0.00000
0.00000
0.00000
0.00000
0.00000
0.00000
0.00000
0.00000
0.00000
0.00000
0.00000
0.00000
0.00000
0.00000
0.00000
0.00000
0.00000
0.00000
0.00000
0.00000
0.00000
0.00000
0.00000
0.00000
0.00000
0.00000
0.00000
0.00000
0.00000
0.00000
0.00000
0.00000
0.00000
0.00000
0.00000
0.00000
0.00000
0.00000
0.00000
0.00000
0.00000
0.00000
0.00000
0.00000
0.00000
0.00000
0.00000
0.00000
0.00000
0.00000
0.00000
0.00000
0.00000
0.00000
0.00000
0.00000
0.00000
0.00000
0.00000
0.00000
0.00000
0.00000
0.00000
0.00000
0.00000
0.00000
0.00000
0.00000
0.00000
0.00000
0.00000
0.00000
0.00000
0.00000
0.00000
0.00000
0.00000
0.00000
0.00000
0.00000
0.00000
0.00000
0.00000
0.00000
0.00000
0.00000
0.00000
0.00000
0.00000
0.00000
0.00000
0.00000
0.00000
0.00000
0.00000
0.00000
0.00000
0.00000
0.00000
0.00000
0.00000
0.00000
0.00000
0.00000
0.00000
0.00000
0.00000
0.00000
0.00000
0.00000
0.00000
0.00000
0.00000
0.00000
0.00000
0.00000
0.00000
0.00000
0.00000
0.00000
0.00000
0.00000
0.00000
0.00000
0.00000
0.00000
0.00000
0.00000
0.00000
0.00000
0.00000
0.00000
0.00000
0.00000
0.00000
0.00000
0.00000
0.00000
0.00000
0.00000
0.00000
0.00000
0.00000
0.00000
0.00000
0.00000
0.00000
0.00000
0.00000
0.00000
0.00000
0.00000
0.00000
0.00000
0.00000
0.00000
0.00000
0.00000
0.00000
0.00000
0.00000
0.00000
0.00000
0.00000
0.00000
0.00000
0.00000
0.00000
0.00000
0.00000
0.00000
0.00000
0.00000
0.00000
0.00000
0.00000
0.00000
0.00000
0.00000
0.00000
0.00000
0.00000
0.00000
0.00000
0.00000
0.00000
0.00000
0.00000
0.00000
0.00000
0.00000
0.00000
0.00000
0.00000
0.00000
0.00000
0.00000
0.00000
0.00000
0.00000
0.00000
0.00000
0.00000
0.00000
0.00000
0.00000
0.00000
0.00000
0.00000
0.00000
0.00000
0.00000
0.00000
0.00000
0.00000
0.00000
0.00000
0.00000
0.00000
0.00000
0.00000
0.00000
0.00000
0.00000
0.00000
0.00000
0.00000
0.00000
0.00000
0.00000
0.00000
0.00000
0.00000
0.00000
0.00000
0.00000
0.00000
0.00000
0.00000
0.00000
0.00000
0.00000
0.00000
0.00000
0.00000
0.00000
0.00000
0.00000
0.00000
0.00000
0.00000
0.00000
0.00000
0.00000
0.00000
0.00000
0.00000
0.00000
0.00000
0.00000
0.00000
0.00000
0.00000
0.00000
0.00000
0.00000
0.00000
0.00000
0.00000
0.00000
0.00000
0.00000
0.00000
0.00000
0.00000
0.00000
0.00000
0.00000
0.00000
0.00000
0.00000
0.00000
0.00000
0.00000
0.00000
0.00000
0.00000
0.00000
0.00000
0.00000
0.00000
0.00000
0.00000
0.00000
0.00000
0.00000
0.00000
0.00000
0.00000
0.00000
0.00000
0.00000
0.00000
0.00000
0.00000
0.00000
0.00000
0.00000
0.00000
0.00000
0.00000
0.00000
0.00000
0.00000
0.00000
0.00000
0.00000
0.00000
0.00000
0.00000
0.00000
0.00000
0.00000
0.00000
0.00000
0.00000
0.00000
0.00000
0.00000
0.00000
0.00000
0.00000
0.00000
0.00000
0.00000
0.00000
0.00000
0.00000
0.00000
0.00000
0.00000
0.00000
0.00000
0.00000
0.00000
0.00000
0.00000
0.00000
0.00000
0.00000
0.00000
0.00000
0.00000
0.00000
0.00000
0.00000
0.00000
0.00000
0.00000
0.00000
0.00000
0.00000
0.00000
0.00000
0.00000
0.00000
0.00000
0.00000
0.00000
0.00000
0.00000
0.00000
0.00000
0.00000
0.00000
0.00000
0.00000
0.00000
0.00000
0.00000
0.00000
0.00000
0.00000
0.00000
0.00000
0.00000
0.00000
0.00000
0.00000
0.00000
0.00000
0.00000
0.00000
0.00000
0.00000
0.00000
0.00000
0.00000
0.00000
0.00000
0.00000
0.00000
0.00000
0.00000
0.00000
0.00000
0.00000
0.00000
0.00000
0.00000
0.00000
0.00000
0.00000
0.00000
0.00000
0.00000
0.00000
0.00000
0.00000
0.00000
0.00000
0.00000
0.00000
0.00000
0.00000
0.00000
0.00000
0.00000
0.00000
0.00000
0.00000
0.00000
0.00000
0.00000
0.00000
0.00000
0.00000
0.00000
0.00000
0.00000
0.00000
0.00000
0.00000
0.00000
0.00000
0.00000
0.00000
0.00000
0.00000
0.00000
0.00000
0.00000
0.00000
0.00000
0.00000
0.00000
0.00000
0.00000
0.00000
0.00000
0.00000
0.00000
0.00000
0.00000
0.00000
0.00000
0.00000
0.00000
0.00000
0.00000
0.00000
0.00000
0.00000
0.00000
0.00000
0.00000
0.00000
0.00000
0.00000
0.00000
0.00000
0.00000
0.00000
0.00000
0.00000
0.00000
0.00000
0.00000
0.00000
0.00000
0.00000
0.00000
0.00000
0.00000
0.00000
0.00000
0.00000
0.00000
0.00000
0.00000
0.00000
0.00000
0.00000
0.00000
0.00000
0.00000
0.00000
0.00000
0.00000
0.00000
0.00000
0.00000
0.00000
0.00000
0.00000
0.00000
0.00000
0.00000
0.00000
0.00000
0.00000
0.00000
0.00000
0.00000
0.00000
0.00000
0.00000
0.00000
0.00000
0.00000
0.00000
0.00000
0.00000
0.00000
0.00000
0.00000
0.00000
0.00000
0.00000
0.00000
0.00000
0.00000
0.00000
0.00000
0.00000
0.00000
0.00000
0.00000
0.00000
0.00000
0.00000
0.00000
0.00000
0.00000
0.00000
0.00000
0.00000
0.00000
0.00000
0.00000
0.00000
0.00000
0.00000
0.00000
0.00000
0.00000
0.00000
0.00000
0.00000
0.00000
0.00000
0.00000
0.00000
0.00000
0.00000
0.00000
0.00000
0.00000
0.00000
0.00000
0.00000
0.00000
0.00000
0.00000
0.00000
0.00000
0.00000
0.00000
0.00000
0.00000
0.00000
0.00000
0.00000
0.00000
0.00000
0.00000
0.00000
0.00000
0.00000
0.00000
0.00000
0.00000
0.00000
0.00000
0.00000
0.00000
0.00000
0.00000
0.00000
0.00000
0.00000
0.00000
0.00000
0.00000
0.00000
0.00000
0.00000
0.00000
0.00000
0.00000
0.00000
0.00000
0.00000
0.00000
0.00000
0.00000
0.00000
0.00000
0.00000
0.00000
0.00000
0.00000
0.00000
0.00000
0.00000
0.00000
0.00000
0.00000
0.00000
0.00000
0.00000
0.00000
0.00000
0.00000
0.00000
0.00000
0.00000
0.00000
0.00000
0.00000
0.00000
0.00000
0.00000
0.00000
0.00000
0.00000
0.00000
0.00000
0.00000
0.00000
0.00000
0.00000
0.00000
0.00000
0.00000
0.00000
0.00000
0.00000
0.00000
0.00000
0.00000
0.00000
0.00000
0.00000
0.00000
0.00000
0.00000
0.00000
0.00000
0.00000
0.00000
0.00000
0.00000
0.00000
0.00000
0.00000
0.00000
0.00000
0.00000
0.00000
0.00000
0.00000
0.00000
0.00000
0.00000
0.00000
0.00000
0.00000
0.00000
0.00000
0.00000
0.00000
0.00000
0.00000
0.00000
0.00000
0.00000
0.00000
0.00000
0.00000
0.00000
0.00000
0.00000
0.00000
0.00000
0.00000
0.00000
0.00000
0.00000
0.00000
0.00000
0.00000
0.00000
0.00000
0.00000
0.00000
0.00000
0.00000
0.00000
0.00000
0.00000
0.00000
0.00000
0.00000
0.00000
0.00000
0.00000
0.00000
0.00000
0.00000
0.00000
0.00000
0.00000
0.00000
0.00000
0.00000
0.00000
0.00000
0.00000
0.00000
0.00000
0.00000
0.00000
0.00000
0.00000
0.00000
0.00000
0.00000
0.00000
0.00000
0.00000
0.00000
0.00000
0.00000
0.00000
0.00000
0.00000
0.00000
0.00000
0.00000
0.00000
0.00000
0.00000
0.00000
0.00000
0.00000
0.00000
0.00000
0.00000
0.00000
0.00000
0.00000
0.00000
0.00000
0.00000
0.00000
0.00000
0.00000
0.00000
0.00000
0.00000
0.00000
0.00000
0.00000
0.00000
0.00000
0.00000
0.00000
0.00000
0.00000
0.00000
0.00000
0.00000
0.00000
0.00000
0.00000
0.00000
0.00000
0.00000
0.00000
0.00000
0.00000
0.00000
0.00000
0.00000
0.00000
0.00000
0.00000
0.00000
0.00000
0.00000
0.00000
0.00000
0.00000
0.00000
0.00000
0.00000
0.00000
0.00000
0.00000
0.00000
0.00000
0.00000
0.00000
0.00000
0.00000
0.00000
0.00000
0.00000
0.00000
0.00000
0.00000
0.00000
0.00000
0.00000
0.00000
0.00000
0.00000
0.00000
0.00000
0.00000
0.00000
0.00000
0.00000
0.00000
0.00000
0.00000
0.00000
0.00000
0.00000
0.00000
0.00000
0.00000
0.00000
0.00000
0.00000
0.00000
0.00000
0.00000
0.00000
0.00000
0.00000
0.00000
0.00000
0.00000
0.00000
0.00000
0.00000
0.00000
0.00000
0.00000
0.00000
0.00000
0.00000
0.00000
0.00000
0.00000
0.00000
0.00000
0.00000
0.00000
0.00000
0.00000
0.00000
0.00000
0.00000
0.00000
0.00000
0.00000
0.00000
0.00000
0.00000
0.00000
0.00000
0.00000
0.00000
0.00000
0.00000
0.00000
0.00000
0.00000
0.00000
0.00000
0.00000
0.00000
0.00000
0.00000
0.00000
0.00000
0.00000
0.00000
0.00000
0.00000
0.00000
0.00000
0.00000
0.00000
0.00000
0.00000
0.00000
0.00000
0.00000
0.00000
0.00000
0.00000
0.00000
0.00000
0.00000
0.00000
0.00000
0.00000
0.00000
0.00000
0.00000
0.00000
0.00000
0.00000
0.00000
0.00000
0.00000
0.00000
0.00000
0.00000
0.00000
0.00000
0.00000
0.00000
0.00000
0.00000
0.00000
0.00000
0.00000
0.00000
0.00000
0.00000
0.00000
0.00000
0.00000
0.00000
0.00000
0.00000
0.00000
0.00000
0.00000
0.00000
0.00000
0.00000
0.00000
0.00000
0.00000
0.00000
0.00000
0.00000
0.00000
0.00000
0.00000
0.00000
0.00000
0.00000
0.00000
0.00000
0.00000
0.00000
0.00000
0.00000
0.00000
0.00000
0.00000
0.00000
0.00000
0.00000
0.00000
0.00000
0.00000
0.00000
0.00000
0.00000
0.00000
0.00000
0.00000
0.00000
0.00000
0.00000
0.00000
0.00000
0.00000
0.00000
0.00000
0.00000
0.00000
0.00000
0.00000
0.00000
0.00000
0.00000
0.00000
0.00000
0.00000
0.00000
0.00000
0.00000
0.00000
0.00000
0.00000
0.00000
0.00000
0.00000
0.00000
0.00000
0.00000
0.00000
0.00000
0.00000
0.00000
0.00000
0.00000
0.00000
0.00000
0.00000
0.00000
0.00000
0.00000
0.00000
0.00000
0.00000
0.00000
0.00000
0.00000
0.00000
0.00000
0.00000
0.00000
0.00000
0.00000
0.00000
0.00000
0.00000
0.00000
0.00000
0.00000
0.00000
0.00000
0.00000
0.00000
0.00000
0.00000
0.00000
0.00000
0.00000
0.00000
0.00000
0.00000
0.00000
0.00000
0.00000
0.00000
0.00000
0.00000
0.00000
0.00000
0.00000
0.00000
0.00000
0.00000
0.00000
0.00000
0.00000
0.00000
0.00000
0.00000
0.00000
0.00000
0.00000
0.00000
0.00000
0.00000
0.00000
0.00000
0.00000
0.00000
0.00000
0.00000
0.00000
0.00000
0.00000
0.00000
0.00000
0.00000
0.00000
0.00000
0.00000
0.00000
0.00000
0.00000
0.00000
0.00000
0.00000
0.00000
0.00000
0.00000
0.00000
0.00000
0.00000
0.00000
0.00000
0.00000
0.00000
0.00000
0.00000
0.00000
0.00000
0.00000
0.00000
0.00000
0.00000
0.00000
0.00000
0.00000
0.00000
0.00000
0.00000
0.00000
0.00000
0.00000
0.00000
0.00000
0.00000
0.00000
0.00000
0.00000
0.00000
0.00000
0.00000
0.00000
0.00000
0.00000
0.00000
0.00000
0.00000
0.00000
0.00000
0.00000
0.00000
0.00000
0.00000
0.00000
0.00000
0.00000
0.00000
0.00000
0.00000
0.00000
0.00000
0.00000
0.00000
0.00000
0.00000
0.00000
0.00000
0.00000
0.00000
0.00000
0.00000
0.00000
0.00000
0.00000
0.00000
0.00000
0.00000
0.00000
0.00000
0.00000
0.00000
0.00000
0.00000
0.00000
0.00000
0.00000
0.00000
0.00000
0.00000
0.00000
0.00000
0.00000
0.00000
0.00000
0.00000
0.00000
0.00000
0.00000
0.00000
0.00000
0.00000
0.00000
0.00000
0.00000
0.00000
0.00000
0.00000
0.00000
0.00000
0.00000
0.00000
0.00000
0.00000
0.00000
0.00000
0.00000
0.00000
0.00000
0.00000
0.00000
0.00000
0.00000
0.00000
0.00000
0.00000
0.00000
0.00000
0.00000
0.00000
0.00000
0.00000
0.00000
0.00000
0.00000
0.00000
0.00000
0.00000
0.00000
0.00000
0.00000
0.00000
0.00000
0.00000
0.00000
0.00000
0.00000
0.00000
0.00000
0.00000
0.00000
0.00000
0.00000
0.00000
0.00000
0.00000
0.00000
0.00000
0.00000
0.00000
0.00000
0.00000
0.00000
0.00000
0.00000
0.00000
0.00000
0.00000
0.00000
0.00000
0.00000
0.00000
0.00000
0.00000
0.00000
0.00000
0.00000
0.00000
0.00000
0.00000
0.00000
0.00000
0.00000
0.00000
0.00000
0.00000
0.00000
0.00000
0.00000
0.00000
0.00000
0.00000
0.00000
0.00000
0.00000
0.00000
0.00000
0.00000
0.00000
0.00000
0.00000
0.00000
0.00000
0.00000
0.00000
0.00000
0.00000
0.00000
0.00000
0.00000
0.00000
0.00000
0.00000
0.00000
0.00000
0.00000
0.00000
0.00000
0.00000
0.00000
0.00000
0.00000
0.00000
0.00000
0.00000
0.00000
0.00000
0.00000
0.00000
0.00000
0.00000
0.00000
0.00000
0.00000
0.00000
0.00000
0.00000
0.00000
0.00000
0.00000
0.00000
0.00000
0.00000
0.00000
0.00000
0.00000
0.00000
0.00000
0.00000
0.00000
0.00000
0.00000
0.00000
0.00000
0.00000
0.00000
0.00000
0.00000
0.00000
0.00000
0.00000
0.00000
0.00000
0.00000
0.00000
0.00000
0.00000
0.00000
0.00000
0.00000
0.00000
0.00000
0.00000
0.00000
0.00000
0.00000
0.00000
0.00000
0.00000
0.00000
0.00000
0.00000
0.00000
0.00000
0.00000
0.00000
0.00000
0.00000
0.00000
0.00000
0.00000
0.00000
0.00000
0.00000
0.00000
0.00000
0.00000
0.00000
0.00000
0.00000
0.00000
0.00000
0.00000
0.00000
0.00000
0.00000
0.00000
0.00000
0.00000
0.00000
0.00000
0.00000
0.00000
0.00000
0.00000
0.00000
0.00000
0.00000
0.00000
0.00000
0.00000
0.00000
0.00000
0.00000
0.00000
0.00000
0.00000
0.00000
0.00000
0.00000
0.00000
0.00000
0.00000
0.00000
0.00000
0.00000
0.00000
0.00000
0.00000
0.00000
0.00000
0.00000
0.00000
0.00000
0.00000
0.00000
0.00000
0.00000
0.00000
0.00000
0.00000
0.00000
0.00000
0.00000
0.00000
0.00000
0.00000
0.00000
0.00000
0.00000
0.00000
0.00000
0.00000
0.00000
0.00000
0.00000
0.00000
0.00000
0.00000
0.00000
0.00000
0.00000
0.00000
0.00000
0.00000
0.00000
0.00000
0.00000
0.00000
0.00000
0.00000
0.00000
0.00000
0.00000
0.00000
0.00000
0.00000
0.00000
0.00000
0.00000
0.00000
0.00000
0.00000
0.00000
0.00000
0.00000
0.00000
0.00000
0.00000
0.00000
0.00000
0.00000
0.00000
0.00000
0.00000
0.00000
0.00000
0.00000
0.00000
0.00000
0.00000
0.00000
0.00000
0.00000
0.00000
0.00000
0.00000
0.00000
0.00000
0.00000
0.00000
0.00000
0.00000
0.00000
0.00000
0.00000
0.00000
0.00000
0.00000
0.00000
0.00000
0.00000
0.00000
0.00000
0.00000
0.00000
0.00000
0.00000
0.00000
0.00000
0.00000
0.00000
0.00000
0.00000
0.00000
0.00000
0.00000
0.00000
0.00000
0.00000
0.00000
0.00000
0.00000
0.00000
0.00000
0.00000
0.00000
0.00000
0.00000
0.00000
0.00000
0.00000
0.00000
0.00000
0.00000
0.00000
0.00000
0.00000
0.00000
0.00000
0.00000
0.00000
0.00000
0.00000
0.00000
0.00000
0.00000
0.00000
0.00000
0.00000
0.00000
0.00000
0.00000
0.00000
0.00000
0.00000
0.00000
0.00000
0.00000
0.00000
0.00000
0.00000
0.00000
0.00000
0.00000
0.00000
0.00000
0.00000
0.00000
0.00000
0.00000
0.00000
0.00000
0.00000
0.00000
0.00000
0.00000
0.00000
0.00000
0.00000
0.00000
0.00000
0.00000
0.00000
0.00000
0.00000
0.00000
0.00000
0.00000
0.00000
0.00000
0.00000
0.00000
0.00000
0.00000
0.00000
0.00000
0.00000
0.00000
0.00000
0.00000
0.00000
0.00000
0.00000
0.00000
0.00000
0.00000
0.00000
0.00000
0.00000
0.00000
0.00000
0.00000
0.00000
0.00000
0.00000
0.00000
0.00000
0.00000
0.00000
0.00000
0.00000
0.00000
0.00000
0.00000
0.00000
0.00000
0.00000
0.00000
0.00000
0.00000
0.00000
0.00000
0.00000
0.00000
0.00000
0.00000
0.00000
0.00000
0.00000
0.00000
0.00000
0.00000
0.00000
0.00000
0.00000
0.00000
0.00000
0.00000
0.00000
0.00000
0.00000
0.00000
0.00000
0.00000
0.00000
0.00000
0.00000
0.00000
0.00000
0.00000
0.00000
0.00000
0.00000
0.00000
0.00000
0.00000
0.00000
0.00000
0.00000
0.00000
0.00000
0.00000
0.00000
0.00000
0.00000
0.00000
0.00000
0.00000
0.00000
0.00000
0.00000
0.00000
0.00000
0.00000
0.00000
0.00000
0.00000
0.00000
0.00000
0.00000
0.00000
0.00000
0.00000
0.00000
0.00000
0.00000
0.00000
0.00000
0.00000
0.00000
0.00000
0.00000
0.00000
0.00000
0.00000
0.00000
0.00000
0.00000
0.00000
0.00000
0.00000
0.00000
0.00000
0.00000
0.00000
0.00000
0.00000
0.00000
0.00000
0.00000
0.00000
0.00000
0.00000
0.00000
0.00000
0.00000
0.00000
0.00000
0.00000
0.00000
0.00000
0.00000
0.00000
0.00000
0.00000
0.00000
0.00000
0.00000
0.00000
0.00000
0.00000
0.00000
0.00000
0.00000
0.00000
0.00000
0.00000
0.00000
0.00000
0.00000
0.00000
0.00000
0.00000
0.00000
0.00000
0.00000
0.00000
0.00000
0.00000
0.00000
0.00000
0.00000
0.00000
0.00000
0.00000
0.00000
0.00000
0.00000
0.00000
0.00000
0.00000
0.00000
0.00000
0.00000
0.00000
0.00000
0.00000
0.00000
0.00000
0.00000
0.00000
0.00000
0.00000
0.00000
0.00000
0.00000
0.00000
0.00000
0.00000
0.00000
0.00000
0.00000
0.00000
0.00000
0.00000
0.00000
0.00000
0.00000
0.00000
0.00000
0.00000
0.00000
0.00000
0.00000
0.00000
0.00000
0.00000
0.00000
0.00000
0.00000
0.00000
0.00000
0.00000
0.00000
0.00000
0.00000
0.00000
0.00000
0.00000
0.00000
0.00000
0.00000
0.00000
0.00000
0.00000
0.00000
0.00000
0.00000
0.00000
0.00000
0.00000
0.00000
0.00000
0.00000
0.00000
0.00000
0.00000
0.00000
0.00000
0.00000
0.00000
0.00000
0.00000
0.00000
0.00000
0.00000
0.00000
0.00000
0.00000
0.00000
0.00000
0.00000
0.00000
0.00000
0.00000
0.00000
0.00000
0.00000
0.00000
0.00000
0.00000
0.00000
0.00000
0.00000
0.00000
0.00000
0.00000
0.00000
0.00000
0.00000
0.00000
0.00000
0.00000
0.00000
0.00000
0.00000
0.00000
0.00000
0.00000
0.00000
0.00000
0.00000
0.00000
0.00000
0.00000
0.00000
0.00000
0.00000
0.00000
0.00000
0.00000
0.00000
0.00000
0.00000
0.00000
0.00000
0.00000
0.00000
0.00000
0.00000
0.00000
0.00000
0.00000
0.00000
0.00000
0.00000
0.00000
0.00000
0.00000
0.00000
0.00000
0.00000
0.00000
0.00000
0.00000
0.00000
0.00000
0.00000
0.00000
0.00000
0.00000
0.00000
0.00000
0.00000
0.00000
0.00000
0.00000
0.00000
0.00000
0.00000
0.00000
0.00000
0.00000
0.00000
0.00000
0.00000
0.00000
0.00000
0.00000
0.00000
0.00000
0.00000
0.00000
0.00000
0.00000
0.00000
0.00000
0.00000
0.00000
0.00000
0.00000
0.00000
0.00000
0.00000
0.00000
0.00000
0.00000
0.00000
0.00000
0.00000
0.00000
0.00000
0.00000
0.00000
0.00000
0.00000
0.00000
0.00000
0.00000
0.00000
0.00000
0.00000
0.00000
0.00000
0.00000
0.00000
0.00000
0.00000
0.00000
0.00000
0.00000
0.00000
0.00000
0.00000
0.00000
0.00000
0.00000
0.00000
0.00000
0.00000
0.00000
0.00000
0.00000
0.00000
0.00000
0.00000
0.00000
0.00000
0.00000
0.00000
0.00000
0.00000
0.00000
0.00000
0.00000
0.00000
0.00000
0.00000
0.00000
0.00000
0.00000
0.00000
0.00000
0.00000
0.00000
0.00000
0.00000
0.00000
0.00000
0.00000
0.00000
0.00000
0.00000
0.00000
0.00000
0.00000
0.00000
0.00000
0.00000
0.00000
0.00000
0.00000
0.00000
0.00000
0.00000
0.00000
0.00000
0.00000
0.00000
0.00000
0.00000
0.00000
0.00000
0.00000
0.00000
0.00000
0.00000
0.00000
0.00000
0.00000
0.00000
0.00000
0.00000
0.00000
0.00000
0.00000
0.00000
0.00000
0.00000
0.00000
0.00000
0.00000
0.00000
0.00000
0.00000
0.00000
0.00000
0.00000
0.00000
0.00000
0.00000
0.00000
0.00000
0.00000
0.00000
0.00000
0.00000
0.00000
0.00000
0.00000
0.00000
0.00000
0.00000
0.00000
0.00000
0.00000
0.00000
0.00000
0.00000
0.00000
0.00000
0.00000
0.00000
0.00000
0.00000
0.00000
0.00000
0.00000
0.00000
0.00000
0.00000
0.00000
0.00000
0.00000
0.00000
0.00000
0.00000
0.00000
0.00000
0.00000
0.00000
0.00000
0.00000
0.00000
0.00000
0.00000
0.00000
0.00000
0.00000
0.00000
0.00000
0.00000
0.00000
0.00000
0.00000
0.00000
0.00000
0.00000
0.00000
0.00000
0.00000
0.00000
0.00000
0.00000
0.00000
0.00000
0.00000
0.00000
0.00000
0.00000
0.00000
0.00000
0.00000
0.00000
0.00000
0.00000
0.00000
0.00000
0.00000
0.00000
0.00000
0.00000
0.00000
0.00000
0.00000
0.00000
0.00000
0.00000
0.00000
0.00000
0.00000
0.00000
0.00000
0.00000
0.00000
0.00000
0.00000
0.00000
0.00000
0.00000
0.00000
0.00000
0.00000
0.00000
0.00000
0.00000
0.00000
0.00000
0.00000
0.00000
0.00000
0.00000
0.00000
0.00000
0.00000
0.00000
0.00000
0.00000
0.00000
0.00000
0.00000
0.00000
0.00000
0.00000
0.00000
0.00000
0.00000
0.00000
0.00000
0.00000
0.00000
0.00000
0.00000
0.00000
0.00000
0.00000
0.00000
0.00000
0.00000
0.00000
0.00000
0.00000
0.00000
0.00000
0.00000
0.00000
0.00000
0.00000
0.00000
0.00000
0.00000
0.00000
0.00000
0.00000
0.00000
0.00000
0.00000
0.00000
0.00000
0.00000
0.00000
0.00000
0.00000
0.00000
0.00000
0.00000
0.00000
0.00000
0.00000
0.00000
0.00000
0.00000
0.00000
0.00000
0.00000
0.00000
0.00000
0.00000
0.00000
0.00000
0.00000
0.00000
0.00000
0.00000
0.00000
0.00000
0.00000
0.00000
0.00000
0.00000
0.00000
0.00000
0.00000
0.00000
0.00000
0.00000
0.00000
0.00000
0.00000
0.00000
0.00000
0.00000
0.00000
0.00000
0.00000
0.00000
0.00000
0.00000
0.00000
0.00000
0.00000
0.00000
0.00000
0.00000
0.00000
0.00000
0.00000
0.00000
0.00000
0.00000
0.00000
0.00000
0.00000
0.00000
0.00000
0.00000
0.00000
0.00000
0.00000
0.00000
0.00000
0.00000
0.00000
0.00000
0.00000
0.00000
0.00000
0.00000
0.00000
0.00000
0.00000
0.00000
0.00000
0.00000
0.00000
0.00000
0.00000
0.00000
0.00000
0.00000
0.00000
0.00000
0.00000
0.00000
0.00000
0.00000
0.00000
0.00000
0.00000
0.00000
0.00000
0.00000
0.00000
0.00000
0.00000
0.00000
0.00000
0.00000
0.00000
0.00000
0.00000
0.00000
0.00000
0.00000
0.00000
0.00000
0.00000
0.00000
0.00000
0.00000
0.00000
0.00000
0.00000
0.00000
0.00000
0.00000
0.00000
0.00000
0.00000
0.00000
0.00000
0.00000
0.00000
0.00000
0.00000
0.00000
0.00000
0.00000
0.00000
0.00000
0.00000
0.00000
0.00000
0.00000
0.00000
0.00000
0.00000
0.00000
0.00000
0.00000
0.00000
0.00000
0.00000
0.00000
0.00000
0.00000
0.00000
0.00000
0.00000
0.00000
0.00000
0.00000
0.00000
0.00000
0.00000
0.00000
0.00000
0.00000
0.00000
0.00000
0.00000
0.00000
0.00000
0.00000
0.00000
0.00000
0.00000
0.00000
0.00000
0.00000
0.00000
0.00000
0.00000
0.00000
0.00000
0.00000
0.00000
0.00000
0.00000
0.00000
0.00000
0.00000
0.00000
0.00000
0.00000
0.00000
0.00000
0.00000
0.00000
0.00000
0.00000
0.00000
0.00000
0.00000
0.00000
0.00000
0.00000
0.00000
0.00000
0.00000
0.00000
0.00000
0.00000
0.00000
0.00000
0.00000
0.00000
0.00000
0.00000
0.00000
0.00000
0.00000
0.00000
0.00000
0.00000
0.00000
0.00000
0.00000
0.00000
0.00000
0.00000
0.00000
0.00000
0.00000
0.00000
0.00000
0.00000
0.00000
0.00000
0.00000
0.00000
0.00000
0.00000
0.00000
0.00000
0.00000
0.00000
0.00000
0.00000
0.00000
0.00000
0.00000
0.00000
0.00000
0.00000
0.00000
0.00000
0.00000
0.00000
0.00000
0.00000
0.00000
0.00000
0.00000
0.00000
0.00000
0.00000
0.00000
0.00000
0.00000
0.00000
0.00000
0.00000
0.00000
0.00000
0.00000
0.00000
0.00000
0.00000
0.00000
0.00000
0.00000
0.00000
0.00000
0.00000
0.00000
0.00000
0.00000
0.00000
0.00000
0.00000
0.00000
0.00000
0.00000
0.00000
0.00000
0.00000
0.00000
0.00000
0.00000
0.00000
0.00000
0.00000
0.00000
0.00000
0.00000
0.00000
0.00000
0.00000
0.00000
0.00000
0.00000
0.00000
0.00000
0.00000
0.00000
0.00000
0.00000
0.00000
0.00000
0.00000
0.00000
0.00000
0.00000
0.00000
0.00000
0.00000
0.00000
0.00000
0.00000
0.00000
0.00000
0.00000
0.00000
0.00000
0.00000
0.00000
0.00000
0.00000
0.00000
0.00000
0.00000
0.00000
0.00000
0.00000
0.00000
0.00000
0.00000
0.00000
0.00000
0.00000
0.00000
0.00000
0.00000
0.00000
0.00000
0.00000
0.00000
0.00000
0.00000
0.00000
0.00000
0.00000
0.00000
0.00000
0.00000
0.00000
0.00000
0.00000
0.00000
0.00000
0.00000
0.00000
0.00000
0.00000
0.00000
0.00000
0.00000
0.00000
0.00000
0.00000
0.00000
0.00000
0.00000
0.00000
0.00000
0.00000
0.00000
0.00000
0.00000
0.00000
0.00000
0.00000
0.00000
0.00000
0.00000
0.00000
0.00000
0.00000
0.00000
0.00000
0.00000
0.00000
0.00000
0.00000
0.00000
0.00000
0.00000
0.00000
0.00000
0.00000
0.00000
0.00000
0.00000
0.00000
0.00000
0.00000
0.00000
0.00000
0.00000
0.00000
0.00000
0.00000
0.00000
0.00000
0.00000
0.00000
0.00000
0.00000
0.00000
0.00000
0.00000
0.00000
0.00000
0.00000
0.00000
0.00000
0.00000
0.00000
0.00000
0.00000
0.00000
0.00000
0.00000
0.00000
0.00000
0.00000
0.00000
0.00000
0.00000
0.00000
0.00000
0.00000
0.00000
0.00000
0.00000
0.00000
0.00000
0.00000
0.00000
0.00000
0.00000
0.00000
0.00000
0.00000
0.00000
0.00000
0.00000
0.00000
0.00000
0.00000
0.00000
0.00000
0.00000
0.00000
0.00000
0.00000
0.00000
0.00000
0.00000
0.00000
0.00000
0.00000
0.00000
0.00000
0.00000
0.00000
0.00000
0.00000
0.00000
0.00000
0.00000
0.00000
0.00000
0.00000
0.00000
0.00000
0.00000
0.00000
0.00000
0.00000
0.00000
0.00000
0.00000
0.00000
0.00000
0.00000
0.00000
0.00000
0.00000
0.00000
0.00000
0.00000
0.00000
0.00000
0.00000
0.00000
0.00000
0.00000
0.00000
0.00000
0.00000
0.00000
0.00000
0.00000
0.00000
0.00000
0.00000
0.00000
0.00000
0.00000
0.00000
0.00000
0.00000
0.00000
0.00000
0.00000
0.00000
0.00000
0.00000
0.00000
0.00000
0.00000
0.00000
0.00000
0.00000
0.00000
0.00000
0.00000
0.00000
0.00000
0.00000
0.00000
0.00000
0.00000
0.00000
0.00000
0.00000
0.00000
0.00000
0.00000
0.00000
0.00000
0.00000
0.00000
0.00000
0.00000
0.00000
0.00000
0.00000
0.00000
0.00000
0.00000
0.00000
0.00000
0.00000
0.00000
0.00000
0.00000
0.00000
0.00000
0.00000
0.00000
0.00000
0.00000
0.00000
0.00000
0.00000
0.00000
0.00000
0.00000
0.00000
0.00000
0.00000
0.00000
0.00000
0.00000
0.00000
0.00000
0.00000
0.00000
0.00000
0.00000
0.00000
0.00000
0.00000
0.00000
0.00000
0.00000
0.00000
0.00000
0.00000
0.00000
0.00000
0.00000
0.00000
0.00000
0.00000
0.00000
0.00000
0.00000
0.00000
0.00000
0.00000
0.00000
0.00000
0.00000
0.00000
0.00000
0.00000
0.00000
0.00000
0.00000
0.00000
0.00000
0.00000
0.00000
0.00000
0.00000
0.00000
0.00000
0.00000
0.00000
0.00000
0.00000
0.00000
0.00000
0.00000
0.00000
0.00000
0.00000
0.00000
0.00000
0.00000
0.00000
0.00000
0.00000
0.00000
0.00000
0.00000
0.00000
0.00000
0.00000
0.00000
0.00000
0.00000
0.00000
0.00000
0.00000
0.00000
0.00000
0.00000
0.00000
0.00000
0.00000
0.00000
0.00000
0.00000
0.00000
0.00000
0.00000
0.00000
0.00000
0.00000
0.00000
0.00000
0.00000
0.00000
0.00000
0.00000
0.00000
0.00000
0.00000
0.00000
0.00000
0.00000
0.00000
0.00000
0.00000
0.00000
0.00000
0.00000
0.00000
0.00000
0.00000
0.00000
0.00000
0.00000
0.00000
0.00000
0.00000
0.00000
0.00000
0.00000
0.00000
0.00000
0.00000
0.00000
0.00000
0.00000
0.00000
0.00000
0.00000
0.00000
0.00000
0.00000
0.00000
0.00000
0.00000
0.00000
0.00000
0.00000
0.00000
0.00000
0.00000
0.00000
0.00000
0.00000
0.00000
0.00000
0.00000
0.00000
0.00000
0.00000
0.00000
0.00000
0.00000
0.00000
0.00000
0.00000
0.00000
0.00000
0.00000
0.00000
0.00000
0.00000
0.00000
0.00000
0.00000
0.00000
0.00000
0.00000
0.00000
0.00000
0.00000
0.00000
0.00000
0.00000
0.00000
0.00000
0.00000
0.00000
0.00000
0.00000
0.00000
0.00000
0.00000
0.00000
0.00000
0.00000
0.00000
0.00000
0.00000
0.00000
0.00000
0.00000
0.00000
0.00000
0.00000
0.00000
0.00000
0.00000
0.00000
0.00000
0.00000
0.00000
0.00000
0.00000
0.00000
0.00000
0.00000
0.00000
0.00000
0.00000
0.00000
0.00000
0.00000
0.00000
0.00000
0.00000
0.00000
0.00000
0.00000
0.00000
0.00000
0.00000
0.00000
0.00000
0.00000
0.00000
0.00000
0.00000
0.00000
0.00000
0.00000
0.00000
0.00000
0.00000
0.00000
0.00000
0.00000
0.00000
0.00000
0.00000
0.00000
0.00000
0.00000
0.00000
0.00000
0.00000
0.00000
0.00000
0.00000
0.00000
0.00000
0.00000
0.00000
0.00000
0.00000
0.00000
0.00000
0.00000
0.00000
0.00000
0.00000
0.00000
0.00000
0.00000
0.00000
0.00000
0.00000
0.00000
0.00000
0.00000
0.00000
0.00000
0.00000
0.00000
0.00000
0.00000
0.00000
0.00000
0.00000
0.00000
0.00000
0.00000
0.00000
0.00000
0.00000
0.00000
0.00000
0.00000
0.00000
0.00000
0.00000
0.00000
0.00000
0.00000
0.00000
0.00000
0.00000
0.00000
0.00000
0.00000
0.00000
0.00000
0.00000
0.00000
0.00000
0.00000
0.00000
0.00000
0.00000
0.00000
0.00000
0.00000
0.00000
0.00000
0.00000
0.00000
0.00000
0.00000
0.00000
0.00000
0.00000
0.00000
0.00000
0.00000
0.00000
0.00000
0.00000
0.00000
0.00000
0.00000
0.00000
0.00000
0.00000
0.00000
0.00000
0.00000
0.00000
0.00000
0.00000
0.00000
0.00000
0.00000
0.00000
0.00000
0.00000
0.00000
0.00000
0.00000
0.00000
0.00000
0.00000
0.00000
0.00000
0.00000
0.00000
0.00000
0.00000
0.00000
0.00000
0.00000
0.00000
0.00000
0.00000
0.00000
0.00000
0.00000
0.00000
0.00000
0.00000
0.00000
0.00000
0.00000
0.00000
0.00000
0.00000
0.00000
0.00000
0.00000
0.00000
0.00000
0.00000
0.00000
0.00000
0.00000
0.00000
0.00000
0.00000
0.00000
0.00000
0.00000
0.00000
0.00000
0.00000
0.00000
0.00000
0.00000
0.00000
0.00000
0.00000
0.00000
0.00000
0.00000
0.00000
0.00000
0.00000
0.00000
0.00000
0.00000
0.00000
0.00000
0.00000
0.00000
0.00000
0.00000
0.00000
0.00000
0.00000
0.00000
0.00000
0.00000
0.00000
0.00000
0.00000
0.00000
0.00000
0.00000
0.00000
0.00000
0.00000
0.00000
0.00000
0.00000
0.00000
0.00000
0.00000
0.00000
0.00000
0.00000
0.00000
0.00000
0.00000
0.00000
0.00000
0.00000
0.00000
0.00000
0.00000
0.00000
0.00000
0.00000
0.00000
0.00000
0.00000
0.00000
0.00000
0.00000
0.00000
0.00000
0.00000
0.00000
0.00000
0.00000
0.00000
0.00000
0.00000
0.00000
0.00000
0.00000
0.00000
0.00000
0.00000
0.00000
0.00000
0.00000
0.00000
0.00000
0.00000
0.00000
0.00000
0.00000
0.00000
0.00000
0.00000
0.00000
0.00000
0.00000
0.00000
0.00000
0.00000
0.00000
0.00000
0.00000
0.00000
0.00000
0.00000
0.00000
0.00000
0.00000
0.00000
0.00000
0.00000
0.00000
0.00000
0.00000
0.00000
0.00000
0.00000
0.00000
0.00000
0.00000
0.00000
0.00000
0.00000
0.00000
0.00000
0.00000
0.00000
0.00000
0.00000
0.00000
0.00000
0.00000
0.00000
0.00000
0.00000
0.00000
0.00000
0.00000
0.00000
0.00000
0.00000
0.00000
0.00000
0.00000
0.00000
0.00000
0.00000
0.00000
0.00000
0.00000
0.00000
0.00000
0.00000
0.00000
0.00000
0.00000
0.00000
0.00000
0.00000
0.00000
0.00000
0.00000
0.00000
0.00000
0.00000
0.00000
0.00000
0.00000
0.00000
0.00000
0.00000
0.00000
0.00000
0.00000
0.00000
0.00000
0.00000
0.00000
0.00000
0.00000
0.00000
0.00000
0.00000
0.00000
0.00000
0.00000
0.00000
0.00000
0.00000
0.00000
0.00000
0.00000
0.00000
0.00000
0.00000
0.00000
0.00000
0.00000
0.00000
0.00000
0.00000
0.00000
0.00000
0.00000
0.00000
0.00000
0.00000
0.00000
0.00000
0.00000
0.00000
0.00000
0.00000
0.00000
0.00000
0.00000
0.00000
0.00000
0.00000
0.00000
0.00000
0.00000
0.00000
0.00000
0.00000
0.00000
0.00000
0.00000
0.00000
0.00000
0.00000
0.00000
0.00000
0.00000
0.00000
0.00000
0.00000
0.00000
0.00000
0.00000
0.00000
0.00000
0.00000
0.00000
0.00000
0.00000
0.00000
0.00000
0.00000
0.00000
0.00000
0.00000
0.00000
0.00000
0.00000
0.00000
0.00000
0.00000
0.00000
0.00000
0.00000
0.00000
0.00000
0.00000
0.00000
0.00000
0.00000
0.00000
0.00000
0.00000
0.00000
0.00000
0.00000
0.00000
0.00000
0.00000
0.00000
0.00000
0.00000
0.00000
0.00000
0.00000
0.00000
0.00000
0.00000
0.00000
0.00000
0.00000
0.00000
0.00000
0.00000
0.00000
0.00000
0.00000
0.00000
0.00000
0.00000
0.00000
0.00000
0.00000
0.00000
0.00000
0.00000
0.00000
0.00000
0.00000
0.00000
0.00000
0.00000
0.00000
0.00000
0.00000
0.00000
0.00000
0.00000
0.00000
0.00000
0.00000
0.00000
0.00000
0.00000
0.00000
0.00000
0.00000
0.00000
0.00000
0.00000
0.00000
0.00000
0.00000
0.00000
0.00000
0.00000
0.00000
0.00000
0.00000
0.00000
0.00000
0.00000
0.00000
0.00000
0.00000
0.00000
0.00000
0.00000
0.00000
0.00000
0.00000
0.00000
0.00000
0.00000
0.00000
0.00000
0.00000
0.00000
0.00000
0.00000
0.00000
0.00000
0.00000
0.00000
0.00000
0.00000
0.00000
0.00000
0.00000
0.00000
0.00000
0.00000
0.00000
0.00000
0.00000
0.00000
0.00000
0.00000
0.00000
0.00000
0.00000
0.00000
0.00000
0.00000
0.00000
0.00000
0.00000
0.00000
0.00000
0.00000
0.00000
0.00000
0.00000
0.00000
0.00000
0.00000
0.00000
0.00000
0.00000
0.00000
0.00000
0.00000
0.00000
0.00000
0.00000
0.00000
0.00000
0.00000
0.00000
0.00000
0.00000
0.00000
0.00000
0.00000
0.00000
0.00000
0.00000
0.00000
0.00000
0.00000
0.00000
0.00000
0.00000
0.00000
0.00000
0.00000
0.00000
0.00000
0.00000
0.00000
0.00000
0.00000
0.00000
0.00000
0.00000
0.00000
0.00000
0.00000
0.00000
0.00000
0.00000
0.00000
0.00000
0.00000
0.00000
0.00000
0.00000
0.00000
0.00000
0.00000
0.00000
0.00000
0.00000
0.00000
0.00000
0.00000
0.00000
0.00000
0.00000
0.00000
0.00000
0.00000
0.00000
0.00000
0.00000
0.00000
0.00000
0.00000
0.00000
0.00000
0.00000
0.00000
0.00000
0.00000
0.00000
0.00000
0.00000
0.00000
0.00000
0.00000
0.00000
0.00000
0.00000
0.00000
0.00000
0.00000
0.00000
0.00000
0.00000
0.00000
0.00000
0.00000
0.00000
0.00000
0.00000
0.00000
0.00000
0.00000
0.00000
0.00000
0.00000
0.00000
0.00000
0.00000
0.00000
0.00000
0.00000
0.00000
0.00000
0.00000
0.00000
0.00000
0.00000
0.00000
0.00000
0.00000
0.00000
0.00000
0.00000
0.00000
0.00000
0.00000
0.00000
0.00000
0.00000
0.00000
0.00000
0.00000
0.00000
0.00000
0.00000
0.00000
0.00000
0.00000
0.00000
0.00000
0.00000
0.00000
0.00000
0.00000
0.00000
0.00000
0.00000
0.00000
0.00000
0.00000
0.00000
0.00000
0.00000
0.00000
0.00000
0.00000
0.00000
0.00000
0.00000
0.00000
0.00000
0.00000
0.00000
0.00000
0.00000
0.00000
0.00000
0.00000
0.00000
0.00000
0.00000
0.00000
0.00000
0.00000
0.00000
0.00000
0.00000
0.00000
0.00000
0.00000
0.00000
0.00000
0.00000
0.00000
0.00000
0.00000
0.00000
0.00000
0.00000
0.00000
0.00000
0.00000
0.00000
0.00000
0.00000
0.00000
0.00000
0.00000
0.00000
0.00000
0.00000
0.00000
0.00000
0.00000
0.00000
0.00000
0.00000
0.00000
0.00000
0.00000
0.00000
0.00000
0.00000
0.00000
0.00000
0.00000
0.00000
0.00000
0.00000
0.00000
0.00000
0.00000
0.00000
0.00000
0.00000
0.00000
0.00000
0.00000
0.00000
0.00000
0.00000
0.00000
0.00000
0.00000
0.00000
0.00000
0.00000
0.00000
0.00000
0.00000
0.00000
0.00000
0.00000
0.00000
0.00000
0.00000
0.00000
0.00000
0.00000
0.00000
0.00000
0.00000
0.00000
0.00000
0.00000
0.00000
0.00000
0.00000
0.00000
0.00000
0.00000
0.00000
0.00000
0.00000
0.00000
0.00000
0.00000
0.00000
0.00000
0.00000
0.00000
0.00000
0.00000
0.00000
0.00000
0.00000
0.00000
0.00000
0.00000
0.00000
0.00000
0.00000
0.00000
0.00000
0.00000
0.00000
0.00000
0.00000
0.00000
0.00000
0.00000
0.00000
0.00000
0.00000
0.00000
0.00000
0.00000
0.00000
0.00000
0.00000
0.00000
0.00000
0.00000
0.00000
0.00000
0.00000
0.00000
0.00000
0.00000
0.00000
0.00000
0.00000
0.00000
0.00000
0.00000
0.00000
0.00000
0.00000
0.00000
0.00000
0.00000
0.00000
0.00000
0.00000
0.00000
0.00000
0.00000
0.00000
0.00000
0.00000
0.00000
0.00000
0.00000
0.00000
0.00000
0.00000
0.00000
0.00000
0.00000
0.00000
0.00000
0.00000
0.00000
0.00000
0.00000
0.00000
0.00000
0.00000
0.00000
0.00000
0.00000
0.00000
0.00000
0.00000
0.00000
0.00000
0.00000
0.00000
0.00000
0.00000
0.00000
0.00000
0.00000
0.00000
0.00000
0.00000
0.00000
0.00000
0.00000
0.00000
0.00000
0.00000
0.00000
0.00000
0.00000
0.00000
0.00000
0.00000
0.00000
0.00000
0.00000
0.00000
0.00000
0.00000
0.00000
0.00000
0.00000
0.00000
0.00000
0.00000
0.00000
0.00000
0.00000
0.00000
0.00000
0.00000
0.00000
0.00000
0.00000
0.00000
0.00000
0.00000
0.00000
0.00000
0.00000
0.00000
0.00000
0.00000
0.00000
0.00000
0.00000
0.00000
0.00000
0.00000
0.00000
0.00000
0.00000
0.00000
0.00000
0.00000
0.00000
0.00000
0.00000
0.00000
0.00000
0.00000
0.00000
0.00000
0.00000
0.00000
0.00000
0.00000
0.00000
0.00000
0.00000
0.00000
0.00000
0.00000
0.00000
0.00000
0.00000
0.00000
0.00000
0.00000
0.00000
0.00000
0.00000
0.00000
0.00000
0.00000
0.00000
0.00000
0.00000
0.00000
0.00000
0.00000
0.00000
0.00000
0.00000
0.00000
0.00000
0.00000
0.00000
0.00000
0.00000
0.00000
0.00000
0.00000
0.00000
0.00000
0.00000
0.00000
0.00000
0.00000
0.00000
0.00000
0.00000
0.00000
0.00000
0.00000
0.00000
0.00000
0.00000
0.00000
0.00000
0.00000
0.00000
0.00000
0.00000
0.00000
0.00000
0.00000
0.00000
0.00000
0.00000
0.00000
0.00000
0.00000
0.00000
0.00000
0.00000
0.00000
0.00000
0.00000
0.00000
0.00000
0.00000
0.00000
0.00000
0.00000
0.00000
0.00000
0.00000
0.00000
0.00000
0.00000
0.00000
0.00000
0.00000
0.00000
0.00000
0.00000
0.00000
0.00000
0.00000
0.00000
0.00000
0.00000
0.00000
0.00000
0.00000
0.00000
0.00000
0.00000
0.00000
0.00000
0.00000
0.00000
0.00000
0.00000
0.00000
0.00000
0.00000
0.00000
0.00000
0.00000
0.00000
0.00000
0.00000
0.00000
0.00000
0.00000
0.00000
0.00000
0.00000
0.00000
0.00000
0.00000
0.00000
0.00000
0.00000
0.00000
0.00000
0.00000
0.00000
0.00000
0.00000
0.00000
0.00000
0.00000
0.00000
0.00000
0.00000
0.00000
0.00000
0.00000
0.00000
0.00000
0.00000
0.00000
0.00000
0.00000
0.00000
0.00000
0.00000
0.00000
0.00000
0.00000
0.00000
0.00000
0.00000
0.00000
0.00000
0.00000
0.00000
0.00000
0.00000
0.00000
0.00000
0.00000
0.00000
0.00000
0.00000
0.00000
0.00000
0.00000
0.00000
0.00000
0.00000
0.00000
0.00000
0.00000
0.00000
0.00000
0.00000
0.00000
0.00000
0.00000
0.00000
0.00000
0.00000
0.00000
0.00000
0.00000
0.00000
0.00000
0.00000
0.00000
0.00000
0.00000
0.00000
0.00000
0.00000
0.00000
0.00000
0.00000
0.00000
0.00000
0.00000
0.00000
0.00000
0.00000
0.00000
0.00000
0.00000
0.00000
0.00000
0.00000
0.00000
0.00000
0.00000
0.00000
0.00000
0.00000
0.00000
0.00000
0.00000
0.00000
0.00000
0.00000
0.00000
0.00000
0.00000
0.00000
0.00000
0.00000
0.00000
0.00000
0.00000
0.00000
0.00000
0.00000
0.00000
0.00000
0.00000
0.00000
0.00000
0.00000
0.00000
0.00000
0.00000
0.00000
0.00000
0.00000
0.00000
0.00000
0.00000
0.00000
0.00000
0.00000
0.00000
0.00000
0.00000
0.00000
0.00000
0.00000
0.00000
0.00000
0.00000
0.00000
0.00000
0.00000
0.00000
0.00000
0.00000
0.00000
0.00000
0.00000
0.00000
0.00000
0.00000
0.00000
0.00000
0.00000
0.00000
0.00000
0.00000
0.00000
0.00000
0.00000
0.00000
0.00000
0.00000
0.00000
0.00000
0.00000
0.00000
0.00000
0.00000
0.00000
0.00000
0.00000
0.00000
0.00000
0.00000
0.00000
0.00000
0.00000
0.00000
0.00000
0.00000
0.00000
0.00000
0.00000
0.00000
0.00000
0.00000
0.00000
0.00000
0.00000
0.00000
0.00000
0.00000
0.00000
0.00000
0.00000
0.00000
0.00000
0.00000
0.00000
0.00000
0.00000
0.00000
0.00000
0.00000
0.00000
0.00000
0.00000
0.00000
0.00000
0.00000
0.00000
0.00000
0.00000
0.00000
0.00000
0.00000
0.00000
0.00000
0.00000
0.00000
0.00000
0.00000
0.00000
0.00000
0.00000
0.00000
0.00000
0.00000
0.00000
0.00000
0.00000
0.00000
0.00000
0.00000
0.00000
0.00000
0.00000
0.00000
0.00000
0.00000
0.00000
0.00000
0.00000
0.00000
0.00000
0.00000
0.00000
0.00000
0.00000
0.00000
0.00000
0.00000
0.00000
0.00000
0.00000
0.00000
0.00000
0.00000
0.00000
0.00000
0.00000
0.00000
0.00000
0.00000
0.00000
0.00000
0.00000
0.00000
0.00000
0.00000
0.00000
0.00000
0.00000
0.00000
0.00000
0.00000
0.00000
0.00000
0.00000
0.00000
0.00000
0.00000
0.00000
0.00000
0.00000
0.00000
0.00000
0.00000
0.00000
0.00000
0.00000
0.00000
0.00000
0.00000
0.00000
0.00000
0.00000
0.00000
0.00000
0.00000
0.00000
0.00000
0.00000
0.00000
0.00000
0.00000
0.00000
0.00000
0.00000
0.00000
0.00000
0.00000
0.00000
0.00000
0.00000
0.00000
0.00000
0.00000
0.00000
0.00000
0.00000
0.00000
0.00000
0.00000
0.00000
0.00000
0.00000
0.00000
0.00000
0.00000
0.00000
0.00000
0.00000
0.00000
0.00000
0.00000
0.00000
0.00000
0.00000
0.00000
0.00000
0.00000
0.00000
0.00000
0.00000
0.00000
0.00000
0.00000
0.00000
0.00000
0.00000
0.00000
0.00000
0.00000
0.00000
0.00000
0.00000
0.00000
0.00000
0.00000
0.00000
0.00000
0.00000
0.00000
0.00000
0.00000
0.00000
0.00000
0.00000
0.00000
0.00000
0.00000
0.00000
0.00000
0.00000
0.00000
0.00000
0.00000
0.00000
0.00000
0.00000
0.00000
0.00000
0.00000
0.00000
0.00000
0.00000
0.00000
0.00000
0.00000
0.00000
0.00000
0.00000
0.00000
0.00000
0.00000
0.00000
0.00000
0.00000
0.00000
0.00000
0.00000
0.00000
0.00000
0.00000
0.00000
0.00000
0.00000
0.00000
0.00000
0.00000
0.00000
0.00000
0.00000
0.00000
0.00000
0.00000
0.00000
0.00000
0.00000
0.00000
0.00000
0.00000
0.00000
0.00000
0.00000
0.00000
0.00000
0.00000
0.00000
0.00000
0.00000
0.00000
0.00000
0.00000
0.00000
0.00000
0.00000
0.00000
0.00000
0.00000
0.00000
0.00000
0.00000
0.00000
0.00000
0.00000
0.00000
0.00000
0.00000
0.00000
0.00000
0.00000
0.00000
0.00000
0.00000
0.00000
0.00000
0.00000
0.00000
0.00000
0.00000
0.00000
0.00000
0.00000
0.00000
0.00000
0.00000
0.00000
0.00000
0.00000
0.00000
0.00000
0.00000
0.00000
0.00000
0.00000
0.00000
0.00000
0.00000
0.00000
0.00000
0.00000
0.00000
0.00000
0.00000
0.00000
0.00000
0.00000
0.00000
0.00000
0.00000
0.00000
0.00000
0.00000
0.00000
0.00000
0.00000
0.00000
0.00000
0.00000
0.00000
0.00000
0.00000
0.00000
0.00000
0.00000
0.00000
0.00000
0.00000
0.00000
0.00000
0.00000
0.00000
0.00000
0.00000
0.00000
0.00000
0.00000
0.00000
0.00000
0.00000
0.00000
0.00000
0.00000
0.00000
0.00000
0.00000
0.00000
0.00000
0.00000
0.00000
0.00000
0.00000
0.00000
0.00000
0.00000
0.00000
0.00000
0.00000
0.00000
0.00000
0.00000
0.00000
0.00000
0.00000
0.00000
0.00000
0.00000
0.00000
0.00000
0.00000
0.00000
0.00000
0.00000
0.00000
0.00000
0.00000
0.00000
0.00000
0.00000
0.00000
0.00000
0.00000
0.00000
0.00000
0.00000
0.00000
0.00000
0.00000
0.00000
0.00000
